project1_src/hello.vcd
$date
	Sat Dec  9 00:49:19 2017
$end
$version
	Icarus Verilog
$end
$timescale
	1s
$end
$scope module TestBench $end
$var reg 1 ! Clk $end
$var reg 1 " Reset $end
$var reg 1 # Start $end
$var integer 32 $ counter [31:0] $end
$var integer 32 % flush [31:0] $end
$var integer 32 & i [31:0] $end
$var integer 32 ' outfile [31:0] $end
$var integer 32 ( stall [31:0] $end
$scope module CPU $end
$var wire 1 ! clk_i $end
$var wire 1 " rst_i $end
$var wire 1 # start_i $end
$var wire 32 ) instruction [31:0] $end
$var wire 32 * inst_addr [31:0] $end
$var wire 32 + extended [31:0] $end
$var wire 32 , Mux1_o [31:0] $end
$var wire 32 - IFID_NxtAddr [31:0] $end
$var wire 32 . Dread1 [31:0] $end
$var wire 32 / Add_pc_o [31:0] $end
$scope module ADDER $end
$var wire 32 0 data_o [31:0] $end
$var wire 32 1 data2_in [31:0] $end
$var wire 32 2 data1_in [31:0] $end
$upscope $end
$scope module ALU $end
$var wire 32 3 data2_i [31:0] $end
$var wire 32 4 data1_i [31:0] $end
$var wire 3 5 ALUCtrl_i [2:0] $end
$var reg 32 6 data_o [31:0] $end
$upscope $end
$scope module ALU_Control $end
$var wire 6 7 funct_i [5:0] $end
$var wire 2 8 ALUOp_i [1:0] $end
$var reg 3 9 ALUCtrl_o [2:0] $end
$upscope $end
$scope module Add_PC $end
$var wire 32 : data2_in [31:0] $end
$var wire 32 ; data_o [31:0] $end
$var wire 32 < data1_in [31:0] $end
$upscope $end
$scope module Control $end
$var wire 6 = Op_i [5:0] $end
$var reg 2 > ALUOp_o [1:0] $end
$var reg 1 ? ALUSrc_o $end
$var reg 1 @ Branch_o $end
$var reg 1 A Jump_o $end
$var reg 1 B MemRd_o $end
$var reg 1 C MemWr_o $end
$var reg 1 D MemtoReg_o $end
$var reg 1 E RegDst_o $end
$var reg 1 F RegWr_o $end
$upscope $end
$scope module Data_Memory $end
$var wire 1 G MemRd_i $end
$var wire 1 H MemWr_i $end
$var wire 32 I RdData_o [31:0] $end
$var wire 32 J WrData_i [31:0] $end
$var wire 32 K addr_i [31:0] $end
$var wire 3 L addr [2:0] $end
$var reg 32 M tmp [31:0] $end
$upscope $end
$scope module EXMEM_Reg $end
$var wire 32 N ALUresult_i [31:0] $end
$var wire 32 O ALUresult_o [31:0] $end
$var wire 1 ! clk_i $end
$var wire 1 P memRead_o $end
$var wire 32 Q memWriteData_o [31:0] $end
$var wire 1 R memWrite_o $end
$var wire 1 S memtoReg_o $end
$var wire 5 T regDstAddr_o [4:0] $end
$var wire 1 U writeBack_o $end
$var wire 1 V writeBack_i $end
$var wire 5 W regDstAddr_i [4:0] $end
$var wire 1 X memtoReg_i $end
$var wire 1 Y memWrite_i $end
$var wire 32 Z memWriteData_i [31:0] $end
$var wire 1 [ memRead_i $end
$var reg 32 \ ALUresult [31:0] $end
$var reg 1 ] memRead $end
$var reg 1 ^ memWrite $end
$var reg 32 _ memWriteData [31:0] $end
$var reg 1 ` memtoReg $end
$var reg 5 a regDstAddr [4:0] $end
$var reg 1 b writeBack $end
$upscope $end
$scope module Eq $end
$var wire 32 c rd2_i [31:0] $end
$var wire 32 d rd1_i [31:0] $end
$var wire 1 e eq_o $end
$upscope $end
$scope module FW $end
$var wire 1 U ExMem_Wb_i $end
$var wire 5 f ExMem_rd_i [4:0] $end
$var wire 2 g ForwardA_o [1:0] $end
$var wire 2 h ForwardB_o [1:0] $end
$var wire 5 i MemWb_rd_i [4:0] $end
$var wire 1 j MemWb_Wb_i $end
$var wire 5 k IdEx_rt_i [4:0] $end
$var wire 5 l IdEx_rs_i [4:0] $end
$var reg 2 m ForwardA [1:0] $end
$var reg 2 n ForwardB [1:0] $end
$upscope $end
$scope module HD $end
$var wire 1 o mux_control_o $end
$var wire 1 p pc_stall_o $end
$var wire 1 q stallHold_o $end
$var wire 32 r if_id_reg_i [31:0] $end
$var wire 5 s id_ex_regrt_i [4:0] $end
$var wire 1 [ id_ex_memrd_i $end
$var reg 1 o mux_control $end
$var reg 1 t pc_stall $end
$var reg 1 u stallHold $end
$upscope $end
$scope module IDEX_Reg $end
$var wire 2 v ALUOp_o [1:0] $end
$var wire 1 w ALUSrc_o $end
$var wire 1 ! clk_i $end
$var wire 5 x instr15_11_i [4:0] $end
$var wire 5 y instr15_11_o [4:0] $end
$var wire 5 z instr20_16_i [4:0] $end
$var wire 5 { instr20_16_o [4:0] $end
$var wire 5 | instr25_21_i [4:0] $end
$var wire 5 } instr25_21_o [4:0] $end
$var wire 1 [ memRead_o $end
$var wire 1 Y memWrite_o $end
$var wire 1 X memtoReg_o $end
$var wire 32 ~ nextInstrAddr_o [31:0] $end
$var wire 32 !" reg1Data_o [31:0] $end
$var wire 32 "" reg2Data_o [31:0] $end
$var wire 1 #" regDst_o $end
$var wire 32 $" signExtendResult_o [31:0] $end
$var wire 1 V writeBack_o $end
$var wire 1 %" writeBack_i $end
$var wire 32 &" signExtendResult_i [31:0] $end
$var wire 1 '" regDst_i $end
$var wire 32 (" reg2Data_i [31:0] $end
$var wire 32 )" reg1Data_i [31:0] $end
$var wire 32 *" nextInstrAddr_i [31:0] $end
$var wire 1 +" memtoReg_i $end
$var wire 1 ," memWrite_i $end
$var wire 1 -" memRead_i $end
$var wire 1 ." ALUSrc_i $end
$var wire 2 /" ALUOp_i [1:0] $end
$var reg 2 0" ALUOp [1:0] $end
$var reg 1 w ALUSrc $end
$var reg 5 1" instr15_11 [4:0] $end
$var reg 5 2" instr20_16 [4:0] $end
$var reg 5 3" instr25_21 [4:0] $end
$var reg 1 4" memRead $end
$var reg 1 5" memWrite $end
$var reg 1 6" memtoReg $end
$var reg 32 7" nextInstrAddr [31:0] $end
$var reg 32 8" reg1Data [31:0] $end
$var reg 32 9" reg2Data [31:0] $end
$var reg 1 #" regDst $end
$var reg 32 :" signExtendResult [31:0] $end
$var reg 1 ;" writeBack $end
$upscope $end
$scope module IFID_Reg $end
$var wire 1 ! clk_i $end
$var wire 1 <" flush_i $end
$var wire 32 =" instr_o [31:0] $end
$var wire 32 >" nextInstrAddr_i [31:0] $end
$var wire 32 ?" nextInstrAddr_o [31:0] $end
$var wire 1 q stallHold_i $end
$var wire 32 @" instr_i [31:0] $end
$var reg 32 A" instr [31:0] $end
$var reg 32 B" nextInstrAddr [31:0] $end
$upscope $end
$scope module Instruction_Memory $end
$var wire 32 C" instr_o [31:0] $end
$var wire 32 D" addr_i [31:0] $end
$upscope $end
$scope module MEMWB_Reg $end
$var wire 32 E" ALUresult_i [31:0] $end
$var wire 32 F" ALUresult_o [31:0] $end
$var wire 1 ! clk_i $end
$var wire 32 G" memReadData_i [31:0] $end
$var wire 32 H" memReadData_o [31:0] $end
$var wire 1 S memtoReg_i $end
$var wire 1 I" memtoReg_o $end
$var wire 5 J" regDstAddr_i [4:0] $end
$var wire 5 K" regDstAddr_o [4:0] $end
$var wire 1 U writeBack_i $end
$var wire 1 j writeBack_o $end
$var reg 32 L" ALUresult [31:0] $end
$var reg 32 M" memReadData [31:0] $end
$var reg 1 I" memtoReg $end
$var reg 5 N" regDstAddr [4:0] $end
$var reg 1 O" writeBack $end
$upscope $end
$scope module MUX1 $end
$var wire 32 P" data1_i [31:0] $end
$var wire 32 Q" data2_i [31:0] $end
$var wire 1 R" select_i $end
$var wire 32 S" data_o [31:0] $end
$upscope $end
$scope module MUX2 $end
$var wire 32 T" data1_i [31:0] $end
$var wire 32 U" data2_i [31:0] $end
$var wire 1 A select_i $end
$var wire 32 V" data_o [31:0] $end
$upscope $end
$scope module MUX3 $end
$var wire 5 W" data1_i [4:0] $end
$var wire 5 X" data2_i [4:0] $end
$var wire 1 #" select_i $end
$var wire 5 Y" data_o [4:0] $end
$upscope $end
$scope module MUX4 $end
$var wire 32 Z" data2_i [31:0] $end
$var wire 1 w select_i $end
$var wire 32 [" data_o [31:0] $end
$var wire 32 \" data1_i [31:0] $end
$upscope $end
$scope module MUX5 $end
$var wire 32 ]" data1_i [31:0] $end
$var wire 32 ^" data2_i [31:0] $end
$var wire 1 I" select_i $end
$var wire 32 _" data_o [31:0] $end
$upscope $end
$scope module MUX6 $end
$var wire 32 `" data1_i [31:0] $end
$var wire 32 a" data2_i [31:0] $end
$var wire 32 b" data3_i [31:0] $end
$var wire 32 c" data_o [31:0] $end
$var wire 2 d" select_i [1:0] $end
$var reg 32 e" tmp [31:0] $end
$upscope $end
$scope module MUX7 $end
$var wire 32 f" data1_i [31:0] $end
$var wire 32 g" data2_i [31:0] $end
$var wire 32 h" data3_i [31:0] $end
$var wire 2 i" select_i [1:0] $end
$var wire 32 j" data_o [31:0] $end
$var reg 32 k" tmp [31:0] $end
$upscope $end
$scope module MUX8 $end
$var wire 2 l" ALUOp_i [1:0] $end
$var wire 1 ? ALUSrc_i $end
$var wire 1 B MemRd_i $end
$var wire 1 C MemWr_i $end
$var wire 1 D MemtoReg_i $end
$var wire 1 E RegDst_i $end
$var wire 1 F RegWr_i $end
$var wire 1 o select_i $end
$var wire 1 %" RegWr_o $end
$var wire 1 '" RegDst_o $end
$var wire 1 +" MemtoReg_o $end
$var wire 1 ," MemWr_o $end
$var wire 1 -" MemRd_o $end
$var wire 1 ." ALUSrc_o $end
$var wire 2 m" ALUOp_o [1:0] $end
$upscope $end
$scope module PC $end
$var wire 1 ! clk_i $end
$var wire 32 n" pc_i [31:0] $end
$var wire 1 " rst_i $end
$var wire 1 # start_i $end
$var reg 32 o" pc_o [31:0] $end
$upscope $end
$scope module Registers $end
$var wire 5 p" RDaddr_i [4:0] $end
$var wire 32 q" RDdata_i [31:0] $end
$var wire 5 r" RSaddr_i [4:0] $end
$var wire 32 s" RSdata_o [31:0] $end
$var wire 5 t" RTaddr_i [4:0] $end
$var wire 32 u" RTdata_o [31:0] $end
$var wire 1 j RegWrite_i $end
$var wire 1 ! clk_i $end
$var reg 32 v" RSdata [31:0] $end
$var reg 32 w" RTdata [31:0] $end
$upscope $end
$scope module Shift_left2628 $end
$var wire 26 x" in_i [25:0] $end
$var wire 28 y" out_o [27:0] $end
$upscope $end
$scope module Shift_left3232 $end
$var wire 32 z" out_o [31:0] $end
$var wire 32 {" in_i [31:0] $end
$upscope $end
$scope module Sign_Extend $end
$var wire 16 |" data_i [15:0] $end
$var wire 32 }" data_o [31:0] $end
$upscope $end
$upscope $end
$upscope $end
$enddefinitions $end
#12
$dumpvars
bx }"
bx |"
bx {"
bx00 z"
bx00 y"
bx x"
bx w"
bx v"
bx u"
bx t"
bx s"
bx r"
b0 q"
b0 p"
b0 o"
b100 n"
b0 m"
b0 l"
b0 k"
b0 j"
b0 i"
bx h"
b0 g"
b0 f"
b0 e"
b0 d"
b0 c"
bx b"
b0 a"
b0 `"
b0 _"
bx ^"
b0 ]"
b0 \"
bx0000000000000000 ["
bx0000000000000000 Z"
b0 Y"
b0 X"
b0 W"
b100 V"
b0xxxxxxxxxxxxxxxxxxxxxxxxxx00 U"
b100 T"
b100 S"
0R"
bx Q"
b100 P"
0O"
b0 N"
bx M"
b0 L"
b0 K"
b0 J"
0I"
bx H"
bx G"
b0 F"
bx E"
b0 D"
b100000000010010000000000001010 C"
bx B"
bx A"
b100000000010010000000000001010 @"
bx ?"
b100 >"
bx ="
0<"
x;"
bx0000000000000000 :"
b0 9"
b0 8"
b0 7"
x6"
x5"
x4"
b0 3"
b0 2"
b0 1"
bx 0"
b0 /"
0."
0-"
0,"
0+"
bx *"
bx )"
bx ("
1'"
bx &"
1%"
bx0000000000000000 $"
x#"
b0 ""
b0 !"
b0 ~
b0 }
bx |
b0 {
bx z
b0 y
bx x
xw
bx v
0u
0t
b0 s
bx r
0q
0p
0o
b0 n
b0 m
b0 l
b0 k
0j
b0 i
b0 h
b0 g
b0 f
xe
bx d
bx c
0b
b0 a
0`
bx _
0^
0]
bx \
x[
b0 Z
xY
xX
b0 W
xV
0U
b0 T
0S
0R
bx Q
0P
bx O
bx N
bx M
bz L
bz K
bz J
bx I
zH
zG
1F
1E
0D
0C
0B
0A
0@
0?
b0 >
bx =
b0 <
b100 ;
b100 :
bx 9
bx 8
b0 7
bx 6
bx 5
b0 4
bx0000000000000000 3
bx00 2
bx 1
bx 0
b100 /
bx .
bx -
b100 ,
bx +
b0 *
bx )
b0 (
b11 '
b100000 &
b0 %
b0 $
1#
1"
1!
$end
#25
0!
#50
b101100 0
b101100 Q"
b1 /"
b1 m"
1."
0'"
1e
b1001000000000000101000 U"
b1001000000000000101000 y"
b101000 2
b101000 z"
b1 >
b1 l"
1?
0E
b0 c
b0 ("
b0 u"
b0 w"
b0 .
b0 d
b0 )"
b0 s"
b0 v"
b1000 V"
b1000 n"
bx _"
bx a"
bx g"
bx q"
bx 7
bx Z
bx \"
bx j"
bx k"
bx 4
bx c"
bx e"
bx W
bx Y"
bx 3
bx ["
b0 x
b1001 z
b0 |
b10010000000000001010 x"
b1010 +
b1010 &"
b1010 {"
b1010 }"
b1010 |"
b1000 =
b1001 t"
b0 r"
b100000000100000 @"
b100000000100000 C"
b1000 ,
b1000 S"
b1000 T"
bx F"
bx L"
bx ]"
b0 Q
b0 _
xR
x^
xP
x]
xS
x`
xU
xb
bx y
bx 1"
bx X"
bx k
bx s
bx {
bx 2"
bx W"
bx l
bx }
bx 3"
bx $"
bx :"
bx Z"
bx ""
bx f"
bx 9"
bx !"
bx `"
bx 8"
bx ~
bx 7"
1#"
b0 8
b0 v
b0 0"
0w
0Y
05"
0[
04"
0X
06"
1V
1;"
b100000000010010000000000001010 )
b100000000010010000000000001010 r
b100000000010010000000000001010 ="
b100000000010010000000000001010 A"
b100 -
b100 1
b100 *"
b100 ?"
b100 B"
b1000 /
b1000 ;
b1000 >"
b1000 P"
b100 *
b100 <
b100 D"
b100 o"
b1 $
1!
#75
0!
#100
b0 /"
b0 m"
0."
1'"
b10000000010000000 U"
b10000000010000000 y"
b10000000010000000 2
b10000000010000000 z"
b0 >
b0 l"
0?
1E
b1010 6
b1010 N
b1100 V"
b1100 n"
b1000 x
b0 z
b100000000100000 x"
b100000000100000 +
b100000000100000 &"
b100000000100000 {"
b100000000100000 }"
b100000000100000 |"
b0 =
b0 t"
b1010 7
b0 Z
b0 \"
b0 j"
b0 k"
b0 4
b0 c"
b0 e"
b1001 W
b1001 Y"
b0 5
b0 9
b1010 3
b1010 ["
b100000000010100000000000001101 @"
b100000000010100000000000001101 C"
b1100 ,
b1100 S"
b1100 T"
b100000000100000 )
b100000000100000 r
b100000000100000 ="
b100000000100000 A"
b10000000010001000 0
b10000000010001000 Q"
b1000 -
b1000 1
b1000 *"
b1000 ?"
b1000 B"
b0 y
b0 1"
b0 X"
b1001 k
b1001 s
b1001 {
b1001 2"
b1001 W"
b0 l
b0 }
b0 3"
b1010 $"
b1010 :"
b1010 Z"
b0 ""
b0 f"
b0 9"
b0 !"
b0 `"
b0 8"
b100 ~
b100 7"
0#"
b1 8
b1 v
b1 0"
1w
bx T
bx f
bx J"
bx a
bx Q
bx _
0R
0^
0P
0]
0S
0`
1U
1b
xI"
xj
xO"
b1100 /
b1100 ;
b1100 >"
b1100 P"
b1000 *
b1000 <
b1000 D"
b1000 o"
b10 $
1!
#125
0!
#150
b1 /"
b1 m"
1."
0'"
b0 6
b0 N
b1010000000000000110100 U"
b1010000000000000110100 y"
b110100 2
b110100 z"
b1 >
b1 l"
1?
0E
b10000 V"
b10000 n"
b100000 7
b1000 W
b1000 Y"
b0 3
b0 ["
b0 x
b1010 z
b10100000000000001101 x"
b1101 +
b1101 &"
b1101 {"
b1101 }"
b1101 |"
b1000 =
b1010 t"
b1001010010101100000011000 @"
b1001010010101100000011000 C"
b10000 ,
b10000 S"
b10000 T"
bx i
bx K"
bx p"
bx N"
0I"
1j
1O"
b1001 T
b1001 f
b1001 J"
b1001 a
b0 Q
b0 _
b1010 O
b1010 E"
b1010 b"
b1010 h"
b1010 \
b1000 y
b1000 1"
b1000 X"
b0 k
b0 s
b0 {
b0 2"
b0 W"
b100000000100000 $"
b100000000100000 :"
b100000000100000 Z"
b1000 ~
b1000 7"
1#"
b0 8
b0 v
b0 0"
0w
b100000000010100000000000001101 )
b100000000010100000000000001101 r
b100000000010100000000000001101 ="
b100000000010100000000000001101 A"
b1000000 0
b1000000 Q"
b1100 -
b1100 1
b1100 *"
b1100 ?"
b1100 B"
b10000 /
b10000 ;
b10000 >"
b10000 P"
b1100 *
b1100 <
b1100 D"
b1100 o"
b11 $
1!
#175
0!
#200
b0 /"
b0 m"
0."
1'"
b100101001010110000001100000 U"
b100101001010110000001100000 y"
b10110000001100000 2
b10110000001100000 z"
b0 >
b0 l"
0?
1E
b1010 c
b1010 ("
b1010 u"
b1010 w"
b1010 .
b1010 d
b1010 )"
b1010 s"
b1010 v"
b1101 6
b1101 N
b10100 V"
b10100 n"
b1011 x
b1001 z
b1001 |
b1001010010101100000011000 x"
b101100000011000 +
b101100000011000 &"
b101100000011000 {"
b101100000011000 }"
b101100000011000 |"
b0 =
b1001 t"
b1001 r"
b1101 7
b1010 W
b1010 Y"
b1101 3
b1101 ["
b1010 _"
b1010 a"
b1010 g"
b1010 q"
b100001001010010000000000000001 @"
b100001001010010000000000000001 C"
b10100 ,
b10100 S"
b10100 T"
b1001010010101100000011000 )
b1001010010101100000011000 r
b1001010010101100000011000 ="
b1001010010101100000011000 A"
b10110000001110000 0
b10110000001110000 Q"
b10000 -
b10000 1
b10000 *"
b10000 ?"
b10000 B"
b0 y
b0 1"
b0 X"
b1010 k
b1010 s
b1010 {
b1010 2"
b1010 W"
b1101 $"
b1101 :"
b1101 Z"
b1100 ~
b1100 7"
0#"
b1 8
b1 v
b1 0"
1w
b1000 T
b1000 f
b1000 J"
b1000 a
b0 O
b0 E"
b0 b"
b0 h"
b0 \
b1001 i
b1001 K"
b1001 p"
b1001 N"
b1010 F"
b1010 L"
b1010 ]"
b10100 /
b10100 ;
b10100 >"
b10100 P"
b10000 *
b10000 <
b10000 D"
b10000 o"
b100 $
1!
#225
0!
#250
b1 /"
b1 m"
1."
0'"
b1 5
b1 9
b1100100 6
b1100100 N
b100101001000000000000000100 U"
b100101001000000000000000100 y"
b100 2
b100 z"
b1 >
b1 l"
1?
0E
b11000 V"
b11000 n"
b0 _"
b0 a"
b0 g"
b0 q"
b11000 7
b1010 Z
b1010 \"
b1010 j"
b1010 k"
b1010 4
b1010 c"
b1010 e"
b1011 W
b1011 Y"
b1010 3
b1010 ["
b0 x
b1001010010000000000000001 x"
b1 +
b1 &"
b1 {"
b1 }"
b1 |"
b1000 =
b1010010010101000000100010 @"
b1010010010101000000100010 C"
b11000 ,
b11000 S"
b11000 T"
b1000 i
b1000 K"
b1000 p"
b1000 N"
b0 F"
b0 L"
b0 ]"
b1010 T
b1010 f
b1010 J"
b1010 a
b1101 O
b1101 E"
b1101 b"
b1101 h"
b1101 \
b1011 y
b1011 1"
b1011 X"
b1001 k
b1001 s
b1001 {
b1001 2"
b1001 W"
b1001 l
b1001 }
b1001 3"
b101100000011000 $"
b101100000011000 :"
b101100000011000 Z"
b1010 ""
b1010 f"
b1010 9"
b1010 !"
b1010 `"
b1010 8"
b10000 ~
b10000 7"
1#"
b0 8
b0 v
b0 0"
0w
b100001001010010000000000000001 )
b100001001010010000000000000001 r
b100001001010010000000000000001 ="
b100001001010010000000000000001 A"
b11000 0
b11000 Q"
b10100 -
b10100 1
b10100 *"
b10100 ?"
b10100 B"
b11000 /
b11000 ;
b11000 >"
b11000 P"
b10100 *
b10100 <
b10100 D"
b10100 o"
b101 $
1!
#275
0!
#300
b0 /"
b0 m"
0."
1'"
0e
b101001001010100000010001000 U"
b101001001010100000010001000 y"
b10100000010001000 2
b10100000010001000 z"
b0 >
b0 l"
0?
1E
b1101 .
b1101 d
b1101 )"
b1101 s"
b1101 v"
b1011 6
b1011 N
b11100 V"
b11100 n"
b1010 x
b1010 |
b1010010010101000000100010 x"
b101000000100010 +
b101000000100010 &"
b101000000100010 {"
b101000000100010 }"
b101000000100010 |"
b0 =
b1010 r"
b1 7
b1001 W
b1001 Y"
b0 5
b0 9
b1 3
b1 ["
b1101 _"
b1101 a"
b1101 g"
b1101 q"
b1001010100101100000100100 @"
b1001010100101100000100100 C"
b11100 ,
b11100 S"
b11100 T"
b1010010010101000000100010 )
b1010010010101000000100010 r
b1010010010101000000100010 ="
b1010010010101000000100010 A"
b10100000010100000 0
b10100000010100000 Q"
b11000 -
b11000 1
b11000 *"
b11000 ?"
b11000 B"
b0 y
b0 1"
b0 X"
b1 $"
b1 :"
b1 Z"
b10100 ~
b10100 7"
0#"
b1 8
b1 v
b1 0"
1w
b1011 T
b1011 f
b1011 J"
b1011 a
b1010 Q
b1010 _
b1100100 O
b1100100 E"
b1100100 b"
b1100100 h"
b1100100 \
b1010 i
b1010 K"
b1010 p"
b1010 N"
b1101 F"
b1101 L"
b1101 ]"
b11100 /
b11100 ;
b11100 >"
b11100 P"
b11000 *
b11000 <
b11000 D"
b11000 o"
b110 $
1!
#325
0!
#350
b10 5
b10 9
b10 6
b10 N
b100101010010110000010010000 U"
b100101010010110000010010000 y"
b10110000010010000 2
b10110000010010000 z"
b100000 V"
b100000 n"
b1101 c
b1101 ("
b1101 u"
b1101 w"
b1010 .
b1010 d
b1010 )"
b1010 s"
b1010 v"
b1100100 _"
b1100100 a"
b1100100 g"
b1100100 q"
b1011 Z
b1011 \"
b1011 j"
b1011 k"
b10 h
b10 i"
b10 n
b100010 7
b1101 4
b1101 c"
b1101 e"
b1010 W
b1010 Y"
b1011 3
b1011 ["
b1011 x
b1010 z
b1001 |
b1001010100101100000100100 x"
b101100000100100 +
b101100000100100 &"
b101100000100100 {"
b101100000100100 }"
b101100000100100 |"
b1010 t"
b1001 r"
b1010010110110000000100101 @"
b1010010110110000000100101 C"
b100000 ,
b100000 S"
b100000 T"
b1011 i
b1011 K"
b1011 p"
b1011 N"
b1100100 F"
b1100100 L"
b1100100 ]"
b1001 T
b1001 f
b1001 J"
b1001 a
b1011 O
b1011 E"
b1011 b"
b1011 h"
b1011 \
b1010 y
b1010 1"
b1010 X"
b1010 l
b1010 }
b1010 3"
b101000000100010 $"
b101000000100010 :"
b101000000100010 Z"
b1101 !"
b1101 `"
b1101 8"
b11000 ~
b11000 7"
1#"
b0 8
b0 v
b0 0"
0w
b1001010100101100000100100 )
b1001010100101100000100100 r
b1001010100101100000100100 ="
b1001010100101100000100100 A"
b10110000010101100 0
b10110000010101100 Q"
b11100 -
b11100 1
b11100 *"
b11100 ?"
b11100 B"
b100000 /
b100000 ;
b100000 >"
b100000 P"
b11100 *
b11100 <
b11100 D"
b11100 o"
b111 $
1!
#375
0!
#400
b101001011011000000010010100 U"
b101001011011000000010010100 y"
b11000000010010100 2
b11000000010010100 z"
b1100100 c
b1100100 ("
b1100100 u"
b1100100 w"
b11 5
b11 9
b10 6
b10 N
b10 3
b10 ["
b100100 V"
b100100 n"
b1100 x
b1011 z
b1010 |
b1010010110110000000100101 x"
b110000000100101 +
b110000000100101 &"
b110000000100101 {"
b110000000100101 }"
b110000000100101 |"
b1011 t"
b1010 r"
b1011 W
b1011 Y"
b100100 7
b1011 4
b1011 c"
b1011 e"
b10 Z
b10 \"
b10 j"
b10 k"
b1 g
b1 d"
b1 m
b10 h
b10 i"
b10 n
b1101 .
b1101 d
b1101 )"
b1101 s"
b1101 v"
b1011 _"
b1011 a"
b1011 g"
b1011 q"
b1001010100100000000100000 @"
b1001010100100000000100000 C"
b100100 ,
b100100 S"
b100100 T"
b1010010110110000000100101 )
b1010010110110000000100101 r
b1010010110110000000100101 ="
b1010010110110000000100101 A"
b11000000010110100 0
b11000000010110100 Q"
b100000 -
b100000 1
b100000 *"
b100000 ?"
b100000 B"
b1011 y
b1011 1"
b1011 X"
b1010 k
b1010 s
b1010 {
b1010 2"
b1010 W"
b1001 l
b1001 }
b1001 3"
b101100000100100 $"
b101100000100100 :"
b101100000100100 Z"
b1101 ""
b1101 f"
b1101 9"
b1010 !"
b1010 `"
b1010 8"
b11100 ~
b11100 7"
b1010 T
b1010 f
b1010 J"
b1010 a
b1011 Q
b1011 _
b10 O
b10 E"
b10 b"
b10 h"
b10 \
b1001 i
b1001 K"
b1001 p"
b1001 N"
b1011 F"
b1011 L"
b1011 ]"
b100100 /
b100100 ;
b100100 >"
b100100 P"
b100000 *
b100000 <
b100000 D"
b100000 o"
b1000 $
1!
#425
0!
#450
b10 4
b10 c"
b10 e"
b100 5
b100 9
b100101010010000000010000000 U"
b100101010010000000010000000 y"
b10000000010000000 2
b10000000010000000 z"
b101000 V"
b101000 n"
b10 c
b10 ("
b10 u"
b10 w"
b1011 .
b1011 d
b1011 )"
b1011 s"
b1011 v"
b10 _"
b10 a"
b10 g"
b10 q"
b1100 W
b1100 Y"
b10 h
b10 i"
b10 n
b1 g
b1 d"
b1 m
b100101 7
b1000 x
b1010 z
b1001 |
b1001010100100000000100000 x"
b100000000100000 +
b100000000100000 &"
b100000000100000 {"
b100000000100000 }"
b100000000100000 |"
b1010 t"
b1001 r"
b0 @"
b0 C"
b101000 ,
b101000 S"
b101000 T"
b1010 i
b1010 K"
b1010 p"
b1010 N"
b10 F"
b10 L"
b10 ]"
b1011 T
b1011 f
b1011 J"
b1011 a
b10 Q
b10 _
b1100 y
b1100 1"
b1100 X"
b1011 k
b1011 s
b1011 {
b1011 2"
b1011 W"
b1010 l
b1010 }
b1010 3"
b110000000100101 $"
b110000000100101 :"
b110000000100101 Z"
b1100100 ""
b1100100 f"
b1100100 9"
b1101 !"
b1101 `"
b1101 8"
b100000 ~
b100000 7"
b1001010100100000000100000 )
b1001010100100000000100000 r
b1001010100100000000100000 ="
b1001010100100000000100000 A"
b10000000010100100 0
b10000000010100100 Q"
b100100 -
b100100 1
b100100 *"
b100100 ?"
b100100 B"
b101000 /
b101000 ;
b101000 >"
b101000 P"
b100100 *
b100100 <
b100100 D"
b100100 o"
b1001 $
1!
#475
0!
#500
1e
b0 U"
b0 y"
b0 2
b0 z"
b0 c
b0 ("
b0 u"
b0 w"
b0 .
b0 d
b0 )"
b0 s"
b0 v"
b0 5
b0 9
b1101 6
b1101 N
b101100 V"
b101100 n"
b0 x
b0 z
b0 |
b0 x"
b0 +
b0 &"
b0 {"
b0 }"
b0 |"
b0 t"
b0 r"
b1000 W
b1000 Y"
b100000 7
b1011 4
b1011 c"
b1011 e"
b0 h
b0 i"
b0 n
b0 g
b0 d"
b0 m
b101100 ,
b101100 S"
b101100 T"
b0 )
b0 r
b0 ="
b0 A"
b101000 0
b101000 Q"
b101000 -
b101000 1
b101000 *"
b101000 ?"
b101000 B"
b1000 y
b1000 1"
b1000 X"
b1010 k
b1010 s
b1010 {
b1010 2"
b1010 W"
b1001 l
b1001 }
b1001 3"
b100000000100000 $"
b100000000100000 :"
b100000000100000 Z"
b10 ""
b10 f"
b10 9"
b1011 !"
b1011 `"
b1011 8"
b100100 ~
b100100 7"
b1100 T
b1100 f
b1100 J"
b1100 a
b1011 i
b1011 K"
b1011 p"
b1011 N"
b101100 /
b101100 ;
b101100 >"
b101100 P"
b101000 *
b101000 <
b101000 D"
b101000 o"
b1010 $
1!
#525
0!
#550
b0 3
b0 ["
b0 6
b0 N
b110000 V"
b110000 n"
b0 W
b0 Y"
b0 7
b0 Z
b0 \"
b0 j"
b0 k"
b0 4
b0 c"
b0 e"
b110000 ,
b110000 S"
b110000 T"
b1100 i
b1100 K"
b1100 p"
b1100 N"
b1000 T
b1000 f
b1000 J"
b1000 a
b1101 O
b1101 E"
b1101 b"
b1101 h"
b1101 \
b0 y
b0 1"
b0 X"
b0 k
b0 s
b0 {
b0 2"
b0 W"
b0 l
b0 }
b0 3"
b0 $"
b0 :"
b0 Z"
b0 ""
b0 f"
b0 9"
b0 !"
b0 `"
b0 8"
b101000 ~
b101000 7"
b101100 0
b101100 Q"
b101100 -
b101100 1
b101100 *"
b101100 ?"
b101100 B"
b110000 /
b110000 ;
b110000 >"
b110000 P"
b101100 *
b101100 <
b101100 D"
b101100 o"
b1011 $
1!
#575
0!
#600
b110100 V"
b110100 n"
b1101 _"
b1101 a"
b1101 g"
b1101 q"
b110100 ,
b110100 S"
b110100 T"
b110000 0
b110000 Q"
b110000 -
b110000 1
b110000 *"
b110000 ?"
b110000 B"
b101100 ~
b101100 7"
b0 T
b0 f
b0 J"
b0 a
b0 Q
b0 _
b0 O
b0 E"
b0 b"
b0 h"
b0 \
b1000 i
b1000 K"
b1000 p"
b1000 N"
b1101 F"
b1101 L"
b1101 ]"
b110100 /
b110100 ;
b110100 >"
b110100 P"
b110000 *
b110000 <
b110000 D"
b110000 o"
b1100 $
1!
#625
0!
#650
b111000 V"
b111000 n"
b0 _"
b0 a"
b0 g"
b0 q"
b111000 ,
b111000 S"
b111000 T"
b0 i
b0 K"
b0 p"
b0 N"
b0 F"
b0 L"
b0 ]"
b110000 ~
b110000 7"
b110100 0
b110100 Q"
b110100 -
b110100 1
b110100 *"
b110100 ?"
b110100 B"
b111000 /
b111000 ;
b111000 >"
b111000 P"
b110100 *
b110100 <
b110100 D"
b110100 o"
b1101 $
1!
#675
0!
#700
b111100 V"
b111100 n"
b111100 ,
b111100 S"
b111100 T"
b111000 0
b111000 Q"
b111000 -
b111000 1
b111000 *"
b111000 ?"
b111000 B"
b110100 ~
b110100 7"
b111100 /
b111100 ;
b111100 >"
b111100 P"
b111000 *
b111000 <
b111000 D"
b111000 o"
b1110 $
1!
#725
0!
