project1_src/hello.vcd
$date
	Thu Dec  7 18:33:27 2017
$end
$version
	Icarus Verilog
$end
$timescale
	1s
$end
$scope module TestBench $end
$var reg 1 ! Clk $end
$var reg 1 " Reset $end
$var reg 1 # Start $end
$var integer 32 $ counter [31:0] $end
$var integer 32 % flush [31:0] $end
$var integer 32 & i [31:0] $end
$var integer 32 ' outfile [31:0] $end
$var integer 32 ( stall [31:0] $end
$scope module CPU $end
$var wire 1 ) ALUSrc $end
$var wire 32 * Add_pc_o [31:0] $end
$var wire 32 + Dread1 [31:0] $end
$var wire 32 , IFID_NxtAddr [31:0] $end
$var wire 32 - Mux1_o [31:0] $end
$var wire 1 . clk_i $end
$var wire 32 / extended [31:0] $end
$var wire 32 0 inst_addr [31:0] $end
$var wire 32 1 instruction [31:0] $end
$var wire 1 2 reg_write $end
$var wire 1 3 rst_i $end
$var wire 1 4 start_i $end
$var wire 32 5 write_data [31:0] $end
$var wire 5 6 write_register [4:0] $end
$scope module PC $end
$var wire 1 . clk_i $end
$var wire 32 7 pc_i [31:0] $end
$var wire 1 3 rst_i $end
$var wire 1 4 start_i $end
$var reg 32 8 pc_o [31:0] $end
$upscope $end
$scope module Instruction_Memory $end
$var wire 32 9 addr_i [31:0] $end
$var wire 32 : instr_o [31:0] $end
$upscope $end
$scope module Data_Memory $end
$var wire 1 ; MemRd_i $end
$var wire 1 < MemWr_i $end
$var wire 32 = RdData_o [31:0] $end
$var wire 32 > WrData_i [31:0] $end
$var wire 3 ? addr [2:0] $end
$var wire 32 @ addr_i [31:0] $end
$var reg 32 A tmp [31:0] $end
$upscope $end
$scope module Add_PC $end
$var wire 32 B data1_in [31:0] $end
$var wire 32 C data2_in [31:0] $end
$var wire 32 D data_o [31:0] $end
$upscope $end
$scope module ADDER $end
$var wire 32 E data1_in [31:0] $end
$var wire 32 F data2_in [31:0] $end
$var wire 32 G data_o [31:0] $end
$upscope $end
$scope module Registers $end
$var wire 5 H RDaddr_i [4:0] $end
$var wire 32 I RDdata_i [31:0] $end
$var wire 5 J RSaddr_i [4:0] $end
$var wire 5 K RTaddr_i [4:0] $end
$var wire 1 2 RegWrite_i $end
$var wire 1 . clk_i $end
$var reg 32 L RSdata_o [31:0] $end
$var reg 32 M RTdata_o [31:0] $end
$upscope $end
$scope module Control $end
$var wire 6 N Op_i [5:0] $end
$var reg 2 O ALUOp_o [1:0] $end
$var reg 1 P ALUSrc_o $end
$var reg 1 Q Branch_o $end
$var reg 1 R Jump_o $end
$var reg 1 S MemRd_o $end
$var reg 1 T MemWr_o $end
$var reg 1 U MemtoReg_o $end
$var reg 1 V RegDst_o $end
$var reg 1 W RegWr_o $end
$upscope $end
$scope module Eq $end
$var wire 1 X eq_o $end
$var wire 32 Y rd1_i [31:0] $end
$var wire 32 Z rd2_i [31:0] $end
$upscope $end
$scope module MUX1 $end
$var wire 32 [ data1_i [31:0] $end
$var wire 32 \ data2_i [31:0] $end
$var wire 32 ] data_o [31:0] $end
$var wire 1 ^ select_i $end
$upscope $end
$scope module MUX2 $end
$var wire 32 _ data1_i [31:0] $end
$var wire 32 ` data2_i [31:0] $end
$var wire 32 a data_o [31:0] $end
$var wire 1 b select_i $end
$upscope $end
$scope module MUX3 $end
$var wire 5 c data1_i [4:0] $end
$var wire 5 d data2_i [4:0] $end
$var wire 5 e data_o [4:0] $end
$var wire 1 f select_i $end
$upscope $end
$scope module MUX4 $end
$var wire 32 g data1_i [31:0] $end
$var wire 32 h data2_i [31:0] $end
$var wire 32 i data_o [31:0] $end
$var wire 1 ) select_i $end
$upscope $end
$scope module MUX5 $end
$var wire 32 j data1_i [31:0] $end
$var wire 32 k data2_i [31:0] $end
$var wire 32 l data_o [31:0] $end
$var wire 1 m select_i $end
$upscope $end
$scope module MUX6 $end
$var wire 32 n data1_i [31:0] $end
$var wire 32 o data2_i [31:0] $end
$var wire 32 p data3_i [31:0] $end
$var wire 32 q data_o [31:0] $end
$var wire 2 r select_i [1:0] $end
$var reg 32 s tmp [31:0] $end
$upscope $end
$scope module MUX7 $end
$var wire 32 t data1_i [31:0] $end
$var wire 32 u data2_i [31:0] $end
$var wire 32 v data3_i [31:0] $end
$var wire 32 w data_o [31:0] $end
$var wire 2 x select_i [1:0] $end
$var reg 32 y tmp [31:0] $end
$upscope $end
$scope module MUX8 $end
$var wire 2 z ALUOp_i [1:0] $end
$var wire 2 { ALUOp_o [1:0] $end
$var wire 1 | ALUSrc_i $end
$var wire 1 } ALUSrc_o $end
$var wire 1 ~ MemRd_i $end
$var wire 1 !" MemRd_o $end
$var wire 1 "" MemWr_i $end
$var wire 1 #" MemWr_o $end
$var wire 1 $" MemtoReg_i $end
$var wire 1 %" MemtoReg_o $end
$var wire 1 &" RegDst_i $end
$var wire 1 '" RegDst_o $end
$var wire 1 (" RegWr_i $end
$var wire 1 )" RegWr_o $end
$var wire 1 *" select_i $end
$upscope $end
$scope module Sign_Extend $end
$var wire 16 +" data_i [15:0] $end
$var wire 32 ," data_o [31:0] $end
$upscope $end
$scope module ALU $end
$var wire 3 -" ALUCtrl_i [2:0] $end
$var wire 32 ." data1_i [31:0] $end
$var wire 32 /" data2_i [31:0] $end
$var reg 32 0" data_o [31:0] $end
$upscope $end
$scope module ALU_Control $end
$var wire 2 1" ALUOp_i [1:0] $end
$var wire 6 2" funct_i [5:0] $end
$var reg 3 3" ALUCtrl_o [2:0] $end
$upscope $end
$scope module IFID_Reg $end
$var wire 1 . clk_i $end
$var wire 1 4" flush_i $end
$var wire 32 5" instr_i [31:0] $end
$var wire 32 6" instr_o [31:0] $end
$var wire 32 7" nextInstrAddr_i [31:0] $end
$var wire 32 8" nextInstrAddr_o [31:0] $end
$var wire 1 9" stallHold_i $end
$var reg 32 :" instr [31:0] $end
$var reg 32 ;" nextInstrAddr [31:0] $end
$upscope $end
$scope module Shift_left3232 $end
$var wire 32 <" in_i [31:0] $end
$var wire 32 =" out_o [31:0] $end
$upscope $end
$scope module Shift_left2628 $end
$var wire 26 >" in_i [25:0] $end
$var wire 28 ?" out_o [27:0] $end
$upscope $end
$scope module IDEX_Reg $end
$var wire 2 @" ALUOp_i [1:0] $end
$var wire 2 A" ALUOp_o [1:0] $end
$var wire 1 } ALUSrc_i $end
$var wire 1 B" ALUSrc_o $end
$var wire 1 . clk_i $end
$var wire 5 C" instr15_11_i [4:0] $end
$var wire 5 D" instr15_11_o [4:0] $end
$var wire 5 E" instr20_16_i [4:0] $end
$var wire 5 F" instr20_16_o [4:0] $end
$var wire 5 G" instr25_21_i [4:0] $end
$var wire 5 H" instr25_21_o [4:0] $end
$var wire 1 !" memRead_i $end
$var wire 1 I" memRead_o $end
$var wire 1 #" memWrite_i $end
$var wire 1 J" memWrite_o $end
$var wire 1 %" memtoReg_i $end
$var wire 1 K" memtoReg_o $end
$var wire 32 L" nextInstrAddr_i [31:0] $end
$var wire 32 M" nextInstrAddr_o [31:0] $end
$var wire 32 N" reg1Data_i [31:0] $end
$var wire 32 O" reg1Data_o [31:0] $end
$var wire 32 P" reg2Data_i [31:0] $end
$var wire 32 Q" reg2Data_o [31:0] $end
$var wire 1 '" regDst_i $end
$var wire 1 f regDst_o $end
$var wire 32 R" signExtendResult_i [31:0] $end
$var wire 32 S" signExtendResult_o [31:0] $end
$var wire 1 )" writeBack_i $end
$var wire 1 T" writeBack_o $end
$var reg 2 U" ALUOp [1:0] $end
$var reg 1 V" ALUSrc $end
$var reg 5 W" instr15_11 [4:0] $end
$var reg 5 X" instr20_16 [4:0] $end
$var reg 5 Y" instr25_21 [4:0] $end
$var reg 1 Z" memRead $end
$var reg 1 [" memWrite $end
$var reg 1 \" memtoReg $end
$var reg 32 ]" nextInstrAddr [31:0] $end
$var reg 32 ^" reg1Data [31:0] $end
$var reg 32 _" reg2Data [31:0] $end
$var reg 1 `" regDst $end
$var reg 32 a" signExtendResult [31:0] $end
$var reg 1 b" writeBack $end
$upscope $end
$scope module EXMEM_Reg $end
$var wire 32 c" ALUresult_i [31:0] $end
$var wire 32 d" ALUresult_o [31:0] $end
$var wire 1 . clk_i $end
$var wire 1 I" memRead_i $end
$var wire 1 e" memRead_o $end
$var wire 32 f" memWriteData_i [31:0] $end
$var wire 32 g" memWriteData_o [31:0] $end
$var wire 1 J" memWrite_i $end
$var wire 1 h" memWrite_o $end
$var wire 1 K" memtoReg_i $end
$var wire 1 i" memtoReg_o $end
$var wire 5 j" regDstAddr_i [4:0] $end
$var wire 5 k" regDstAddr_o [4:0] $end
$var wire 1 T" writeBack_i $end
$var wire 1 l" writeBack_o $end
$var reg 32 m" ALUresult [31:0] $end
$var reg 1 n" memRead $end
$var reg 1 o" memWrite $end
$var reg 32 p" memWriteData [31:0] $end
$var reg 1 q" memtoReg $end
$var reg 5 r" regDstAddr [4:0] $end
$var reg 1 s" writeBack $end
$upscope $end
$scope module MEMWB_Reg $end
$var wire 32 t" ALUresult_i [31:0] $end
$var wire 32 u" ALUresult_o [31:0] $end
$var wire 1 . clk_i $end
$var wire 32 v" memReadData_i [31:0] $end
$var wire 32 w" memReadData_o [31:0] $end
$var wire 1 i" memtoReg_i $end
$var wire 1 m memtoReg_o $end
$var wire 5 x" regDstAddr_i [4:0] $end
$var wire 5 y" regDstAddr_o [4:0] $end
$var wire 1 l" writeBack_i $end
$var wire 1 z" writeBack_o $end
$var reg 32 {" ALUresult [31:0] $end
$var reg 32 |" memReadData [31:0] $end
$var reg 1 }" memtoReg $end
$var reg 5 ~" regDstAddr [4:0] $end
$var reg 1 !# writeBack $end
$upscope $end
$scope module HD $end
$var wire 1 I" id_ex_memrd_i $end
$var wire 5 "# id_ex_regrt_i [4:0] $end
$var wire 32 ## if_id_reg_i [31:0] $end
$var wire 1 *" mux_control_o $end
$var wire 1 $# pc_stall_o $end
$var wire 1 9" stallHold_o $end
$var reg 1 %# mux_control $end
$var reg 1 &# pc_stall $end
$var reg 1 '# stallHold $end
$upscope $end
$scope module FW $end
$var wire 1 l" ExMem_Wb_i $end
$var wire 5 (# ExMem_rd_i [4:0] $end
$var wire 2 )# ForwardA_o [1:0] $end
$var wire 2 *# ForwardB_o [1:0] $end
$var wire 5 +# IdEx_rs_i [4:0] $end
$var wire 5 ,# IdEx_rt_i [4:0] $end
$var wire 1 z" MemWb_Wb_i $end
$var wire 5 -# MemWb_rd_i [4:0] $end
$var reg 1 .# ForwardA $end
$var reg 1 /# ForwardB $end
$upscope $end
$upscope $end
$upscope $end
$enddefinitions $end
#12
$dumpvars
0/#
0.#
bx -#
b0 ,#
b0 +#
b0 *#
b0 )#
bx (#
x'#
x&#
x%#
x$#
bx ##
b0 "#
x!#
bx ~"
x}"
bx |"
bx {"
xz"
bx y"
bx x"
bx w"
bx v"
bx u"
bx t"
xs"
bx r"
xq"
bx p"
xo"
xn"
bx m"
xl"
bx k"
b0 j"
xi"
xh"
bx g"
bx f"
xe"
bx d"
bx c"
xb"
bx0000000000000000 a"
x`"
bx _"
bx ^"
b0 ]"
x\"
x["
xZ"
b0 Y"
b0 X"
b0 W"
xV"
bx U"
xT"
bx0000000000000000 S"
bx R"
bx Q"
b0 P"
bx O"
b0 N"
b0 M"
bx L"
xK"
xJ"
xI"
b0 H"
bx G"
b0 F"
bx E"
b0 D"
bx C"
xB"
bx A"
b0 @"
bx00 ?"
bx >"
bx00 ="
bx <"
bx ;"
bx :"
x9"
bx 8"
b100 7"
bx 6"
b100000000100000 5"
04"
bx 3"
b0 2"
bx 1"
bx 0"
bx /"
bx ."
bx -"
bx ,"
bx +"
x*"
x)"
1("
x'"
1&"
0%"
0$"
0#"
0""
0!"
0~
0}
0|
b0 {
b0 z
bx y
b0 x
bx w
bx v
bx u
bx t
bx s
b0 r
bx q
bx p
bx o
bx n
xm
bx l
bx k
bx j
bx i
bx0000000000000000 h
bx g
xf
b0 e
b0 d
b0 c
0b
b100 a
b0xxxxxxxxxxxxxxxxxxxxxxxxxx00 `
b100 _
0^
b100 ]
bx \
b100 [
b0 Z
b0 Y
1X
1W
1V
0U
0T
0S
0R
0Q
0P
b0 O
bx N
b0 M
b0 L
bx K
bx J
bz I
bz H
bx G
bx F
bx00 E
b100 D
b100 C
b0 B
bx A
bz @
bz ?
bz >
bx =
z<
z;
b100000000100000 :
b0 9
b0 8
b100 7
bz 6
bz 5
14
13
z2
bx 1
b0 0
bx /
1.
b100 -
bx ,
b0 +
b100 *
z)
b0 (
b11 '
b100000 &
b0 %
b0 $
1#
1"
1!
$end
#25
0!
0.
#50
b10000000010000100 G
b10000000010000100 \
b10000000010000000 ?"
b10000000010000000 `
b10000000010000000 E
b10000000010000000 ="
b1000 7
b1000 a
bx e
bx j"
bx 2"
b0 y
b0 g
b0 w
b0 f"
b0 s
b0 q
b0 ."
b1000 C"
b0 E"
b0 G"
b100000000100000 >"
b100000000100000 +"
b100000000100000 /
b100000000100000 ,"
b100000000100000 <"
b100000000100000 R"
b0 N
b0 K
b0 J
xX
b100000000010010000000000001010 :
b100000000010010000000000001010 5"
b1000 -
b1000 ]
b1000 _
b0 r"
b0 k"
b0 x"
b0 (#
bx W"
bx d
bx D"
bx X"
bx c
bx F"
bx "#
bx ,#
bx Y"
bx H"
bx +#
bx a"
bx h
bx S"
b0 _"
b0 t
b0 Q"
b0 ^"
b0 n
b0 O"
bx ]"
bx M"
b0 U"
b0 1"
b0 A"
0V"
0B"
0["
0J"
0Z"
0I"
0\"
0K"
b100000000100000 :"
b100000000100000 1
b100000000100000 6"
b100000000100000 ##
b100 ;"
b100 ,
b100 F
b100 8"
b100 L"
bx M
bx Z
bx P"
bx L
bx +
bx Y
bx N"
b100 8
b1000 *
b1000 D
b1000 [
b1000 7"
b100 0
b100 9
b100 B
b1 $
1!
1.
#75
0!
0.
#100
b0x {
b0x @"
x}
0'"
b1001000000000000101000 ?"
b1001000000000000101000 `
b101000 E
b101000 ="
b1 O
b1 z
1P
1|
0V
0&"
b0 3"
b0 -"
b1100 7
b1100 a
1X
b0 C"
b1001 E"
b10010000000000001010 >"
b1010 +"
b1010 /
b1010 ,"
b1010 <"
b1010 R"
b1000 N
b1001 K
b0x000 e
b0x000 j"
b100000 2"
bx y
bx g
bx w
bx f"
bx s
bx q
bx ."
b100000000010100000000000001101 :
b100000000010100000000000001101 5"
b1100 -
b1100 ]
b1100 _
b0 M
b0 Z
b0 P"
b0 L
b0 +
b0 Y
b0 N"
b100000000010010000000000001010 :"
b100000000010010000000000001010 1
b100000000010010000000000001010 6"
b100000000010010000000000001010 ##
b1000 ;"
b110000 G
b110000 \
b1000 ,
b1000 F
b1000 8"
b1000 L"
b1000 W"
b1000 d
b1000 D"
b0 X"
b0 c
b0 F"
b0 "#
b0 ,#
b0 Y"
b0 H"
b0 +#
b100000000100000 a"
b100000000100000 h
b100000000100000 S"
bx _"
bx t
bx Q"
bx ^"
bx n
bx O"
b100 ]"
b100 M"
bx r"
bx k"
bx x"
bx (#
b0 p"
b0 g"
0o"
0h"
0n"
0e"
0q"
0i"
b0 ~"
b0 y"
b0 -#
b1000 8
b1100 *
b1100 D
b1100 [
b1100 7"
b1000 0
b1000 9
b1000 B
b10 $
1!
1.
#125
0!
0.
#150
b1010000000000000110100 ?"
b1010000000000000110100 `
b110100 E
b110100 ="
b10000 7
b10000 a
b1010 2"
b0x0x0 i
b0x0x0 /"
b0 y
b0 g
b0 w
b0 f"
b0 s
b0 q
b0 ."
b1001 e
b1001 j"
b1010 E"
b10100000000000001101 >"
b1101 +"
b1101 /
b1101 ,"
b1101 <"
b1101 R"
b1010 K
b1001010010101100000011000 :
b1001010010101100000011000 5"
b10000 -
b10000 ]
b10000 _
bx ~"
bx y"
bx -#
0}"
0m
b0x000 r"
b0x000 k"
b0x000 x"
b0x000 (#
bx p"
bx g"
b0 W"
b0 d
b0 D"
b1001 X"
b1001 c
b1001 F"
b1001 "#
b1001 ,#
b1010 a"
b1010 h
b1010 S"
b0 _"
b0 t
b0 Q"
b0 ^"
b0 n
b0 O"
b1000 ]"
b1000 M"
0`"
0f
b0x U"
b0x 1"
b0x A"
xV"
xB"
b100000000010100000000000001101 :"
b100000000010100000000000001101 1
b100000000010100000000000001101 6"
b100000000010100000000000001101 ##
b1100 ;"
b1000000 G
b1000000 \
b1100 ,
b1100 F
b1100 8"
b1100 L"
b1100 8
b10000 *
b10000 D
b10000 [
b10000 7"
b1100 0
b1100 9
b1100 B
b11 $
1!
1.
#175
0!
0.
#200
b0 {
b0 @"
0}
x'"
b100101001010110000001100000 ?"
b100101001010110000001100000 `
b10110000001100000 E
b10110000001100000 ="
b0 O
b0 z
0P
0|
1V
1&"
b10100 7
b10100 a
b1011 C"
b1001 E"
b1001 G"
b1001010010101100000011000 >"
b101100000011000 +"
b101100000011000 /
b101100000011000 ,"
b101100000011000 <"
b101100000011000 R"
b0 N
b1001 K
b1001 J
b1010 e
b1010 j"
b1101 2"
b0xx0x i
b0xx0x /"
b100001001010010000000000000001 :
b100001001010010000000000000001 5"
b10100 -
b10100 ]
b10100 _
b1001010010101100000011000 :"
b1001010010101100000011000 1
b1001010010101100000011000 6"
b1001010010101100000011000 ##
b10000 ;"
b10110000001110000 G
b10110000001110000 \
b10000 ,
b10000 F
b10000 8"
b10000 L"
b1010 X"
b1010 c
b1010 F"
b1010 "#
b1010 ,#
b1101 a"
b1101 h
b1101 S"
b1100 ]"
b1100 M"
b1001 r"
b1001 k"
b1001 x"
b1001 (#
b0 p"
b0 g"
b0x000 ~"
b0x000 y"
b0x000 -#
b10000 8
b10100 *
b10100 D
b10100 [
b10100 7"
b10000 0
b10000 9
b10000 B
b100 $
1!
1.
#225
0!
0.
#250
b0x {
b0x @"
x}
0'"
b1 3"
b1 -"
b100101001000000000000000100 ?"
b100101001000000000000000100 `
b100 E
b100 ="
b1 O
b1 z
1P
1|
0V
0&"
b11000 7
b11000 a
b11000 2"
b0x0xx000000xx000 i
b0x0xx000000xx000 /"
b10x1 e
b10x1 j"
b0 C"
b1001010010000000000000001 >"
b1 +"
b1 /
b1 ,"
b1 <"
b1 R"
b1000 N
b1010010010101000000100010 :
b1010010010101000000100010 5"
b11000 -
b11000 ]
b11000 _
b1001 ~"
b1001 y"
b1001 -#
b1010 r"
b1010 k"
b1010 x"
b1010 (#
b1011 W"
b1011 d
b1011 D"
b1001 X"
b1001 c
b1001 F"
b1001 "#
b1001 ,#
b1001 Y"
b1001 H"
b1001 +#
b101100000011000 a"
b101100000011000 h
b101100000011000 S"
b10000 ]"
b10000 M"
x`"
xf
b0 U"
b0 1"
b0 A"
0V"
0B"
b100001001010010000000000000001 :"
b100001001010010000000000000001 1
b100001001010010000000000000001 6"
b100001001010010000000000000001 ##
b10100 ;"
b11000 G
b11000 \
b10100 ,
b10100 F
b10100 8"
b10100 L"
b10100 8
b11000 *
b11000 D
b11000 [
b11000 7"
b10100 0
b10100 9
b10100 B
b101 $
1!
1.
#275
0!
0.
#300
b0 {
b0 @"
0}
x'"
b101001001010100000010001000 ?"
b101001001010100000010001000 `
b10100000010001000 E
b10100000010001000 ="
b0 O
b0 z
0P
0|
1V
1&"
b11100 7
b11100 a
b1010 C"
b1010 G"
b1010010010101000000100010 >"
b101000000100010 +"
b101000000100010 /
b101000000100010 ,"
b101000000100010 <"
b101000000100010 R"
b0 N
b1010 J
b1 2"
b0x i
b0x /"
b1001 e
b1001 j"
b1001010100101100000100100 :
b1001010100101100000100100 5"
b11100 -
b11100 ]
b11100 _
b1010010010101000000100010 :"
b1010010010101000000100010 1
b1010010010101000000100010 6"
b1010010010101000000100010 ##
b11000 ;"
b10100000010100000 G
b10100000010100000 \
b11000 ,
b11000 F
b11000 8"
b11000 L"
b0 W"
b0 d
b0 D"
b1 a"
b1 h
b1 S"
b10100 ]"
b10100 M"
0`"
0f
b0x U"
b0x 1"
b0x A"
xV"
xB"
b10x1 r"
b10x1 k"
b10x1 x"
b10x1 (#
b1010 ~"
b1010 y"
b1010 -#
b11000 8
b11100 *
b11100 D
b11100 [
b11100 7"
b11000 0
b11000 9
b11000 B
b110 $
1!
1.
#325
0!
0.
#350
b10 3"
b10 -"
b100101010010110000010010000 ?"
b100101010010110000010010000 `
b10110000010010000 E
b10110000010010000 ="
b100000 7
b100000 a
b100010 2"
b0x0x000000x000x0 i
b0x0x000000x000x0 /"
b10xx e
b10xx j"
b1011 C"
b1010 E"
b1001 G"
b1001010100101100000100100 >"
b101100000100100 +"
b101100000100100 /
b101100000100100 ,"
b101100000100100 <"
b101100000100100 R"
b1010 K
b1001 J
b1010010110110000000100101 :
b1010010110110000000100101 5"
b100000 -
b100000 ]
b100000 _
b10x1 ~"
b10x1 y"
b10x1 -#
b1001 r"
b1001 k"
b1001 x"
b1001 (#
b1010 W"
b1010 d
b1010 D"
b1010 Y"
b1010 H"
b1010 +#
b101000000100010 a"
b101000000100010 h
b101000000100010 S"
b11000 ]"
b11000 M"
x`"
xf
b0 U"
b0 1"
b0 A"
0V"
0B"
b1001010100101100000100100 :"
b1001010100101100000100100 1
b1001010100101100000100100 6"
b1001010100101100000100100 ##
b11100 ;"
b10110000010101100 G
b10110000010101100 \
b11100 ,
b11100 F
b11100 8"
b11100 L"
b11100 8
b100000 *
b100000 D
b100000 [
b100000 7"
b11100 0
b11100 9
b11100 B
b111 $
1!
1.
#375
0!
0.
#400
b0 0"
b0 c"
b101001011011000000010010100 ?"
b101001011011000000010010100 `
b11000000010010100 E
b11000000010010100 ="
b11 3"
b11 -"
b100100 7
b100100 a
b1100 C"
b1011 E"
b1010 G"
b1010010110110000000100101 >"
b110000000100101 +"
b110000000100101 /
b110000000100101 ,"
b110000000100101 <"
b110000000100101 R"
b1011 K
b1010 J
b101x e
b101x j"
b100100 2"
b0x0xx00000x00x00 i
b0x0xx00000x00x00 /"
b1001010100100000000100000 :
b1001010100100000000100000 5"
b100100 -
b100100 ]
b100100 _
b1010010110110000000100101 :"
b1010010110110000000100101 1
b1010010110110000000100101 6"
b1010010110110000000100101 ##
b100000 ;"
b11000000010110100 G
b11000000010110100 \
b100000 ,
b100000 F
b100000 8"
b100000 L"
b1011 W"
b1011 d
b1011 D"
b1010 X"
b1010 c
b1010 F"
b1010 "#
b1010 ,#
b1001 Y"
b1001 H"
b1001 +#
b101100000100100 a"
b101100000100100 h
b101100000100100 S"
b11100 ]"
b11100 M"
b10xx r"
b10xx k"
b10xx x"
b10xx (#
b1001 ~"
b1001 y"
b1001 -#
b100000 8
b100100 *
b100100 D
b100100 [
b100100 7"
b100000 0
b100000 9
b100000 B
b1000 $
1!
1.
#425
0!
0.
#450
b0xx0000000x00x0x 0"
b0xx0000000x00x0x c"
b100 3"
b100 -"
b100101010010000000010000000 ?"
b100101010010000000010000000 `
b10000000010000000 E
b10000000010000000 ="
b101000 7
b101000 a
b1xxx e
b1xxx j"
b100101 2"
b0xx0000000x00x0x i
b0xx0000000x00x0x /"
b1000 C"
b1010 E"
b1001 G"
b1001010100100000000100000 >"
b100000000100000 +"
b100000000100000 /
b100000000100000 ,"
b100000000100000 <"
b100000000100000 R"
b1010 K
b1001 J
b0 :
b0 5"
b101000 -
b101000 ]
b101000 _
b10xx ~"
b10xx y"
b10xx -#
b101x r"
b101x k"
b101x x"
b101x (#
b0 m"
b0 p
b0 v
b0 d"
b0 t"
b1100 W"
b1100 d
b1100 D"
b1011 X"
b1011 c
b1011 F"
b1011 "#
b1011 ,#
b1010 Y"
b1010 H"
b1010 +#
b110000000100101 a"
b110000000100101 h
b110000000100101 S"
b100000 ]"
b100000 M"
b1001010100100000000100000 :"
b1001010100100000000100000 1
b1001010100100000000100000 6"
b1001010100100000000100000 ##
b100100 ;"
b10000000010100100 G
b10000000010100100 \
b100100 ,
b100100 F
b100100 8"
b100100 L"
b100100 8
b101000 *
b101000 D
b101000 [
b101000 7"
b100100 0
b100100 9
b100100 B
b1001 $
1!
1.
#475
0!
0.
#500
b0 ?"
b0 `
b0 E
b0 ="
b0 3"
b0 -"
bx 0"
bx c"
b101100 7
b101100 a
b0 C"
b0 E"
b0 G"
b0 >"
b0 +"
b0 /
b0 ,"
b0 <"
b0 R"
b0 K
b0 J
b10x0 e
b10x0 j"
b100000 2"
b0x00000000x00000 i
b0x00000000x00000 /"
b101100 -
b101100 ]
b101100 _
b0 :"
b0 1
b0 6"
b0 ##
b101000 ;"
b101000 G
b101000 \
b101000 ,
b101000 F
b101000 8"
b101000 L"
b1000 W"
b1000 d
b1000 D"
b1010 X"
b1010 c
b1010 F"
b1010 "#
b1010 ,#
b1001 Y"
b1001 H"
b1001 +#
b100000000100000 a"
b100000000100000 h
b100000000100000 S"
b100100 ]"
b100100 M"
b1xxx r"
b1xxx k"
b1xxx x"
b1xxx (#
b0xx0000000x00x0x m"
b0xx0000000x00x0x p
b0xx0000000x00x0x v
b0xx0000000x00x0x d"
b0xx0000000x00x0x t"
b101x ~"
b101x y"
b101x -#
b0 {"
b0 k
b0 u"
b101000 8
b101100 *
b101100 D
b101100 [
b101100 7"
b101000 0
b101000 9
b101000 B
b1010 $
1!
1.
#525
0!
0.
#550
b0 0"
b0 c"
b110000 7
b110000 a
b0 e
b0 j"
b0 2"
b0 i
b0 /"
b110000 -
b110000 ]
b110000 _
b1xxx ~"
b1xxx y"
b1xxx -#
b0xx0000000x00x0x {"
b0xx0000000x00x0x k
b0xx0000000x00x0x u"
b10x0 r"
b10x0 k"
b10x0 x"
b10x0 (#
bx m"
bx p
bx v
bx d"
bx t"
b0 W"
b0 d
b0 D"
b0 X"
b0 c
b0 F"
b0 "#
b0 ,#
b0 Y"
b0 H"
b0 +#
b0 a"
b0 h
b0 S"
b101000 ]"
b101000 M"
b101100 ;"
b101100 G
b101100 \
b101100 ,
b101100 F
b101100 8"
b101100 L"
b101100 8
b110000 *
b110000 D
b110000 [
b110000 7"
b101100 0
b101100 9
b101100 B
b1011 $
1!
1.
#575
0!
0.
#600
b110100 7
b110100 a
b110100 -
b110100 ]
b110100 _
b110000 ;"
b110000 G
b110000 \
b110000 ,
b110000 F
b110000 8"
b110000 L"
b101100 ]"
b101100 M"
b0 r"
b0 k"
b0 x"
b0 (#
b0 m"
b0 p
b0 v
b0 d"
b0 t"
b10x0 ~"
b10x0 y"
b10x0 -#
bx {"
bx k
bx u"
b110000 8
b110100 *
b110100 D
b110100 [
b110100 7"
b110000 0
b110000 9
b110000 B
b1100 $
1!
1.
#625
0!
0.
#650
b111000 7
b111000 a
b111000 -
b111000 ]
b111000 _
b0 ~"
b0 y"
b0 -#
b0 {"
b0 k
b0 u"
b110000 ]"
b110000 M"
b110100 ;"
b110100 G
b110100 \
b110100 ,
b110100 F
b110100 8"
b110100 L"
b110100 8
b111000 *
b111000 D
b111000 [
b111000 7"
b110100 0
b110100 9
b110100 B
b1101 $
1!
1.
#675
0!
0.
#700
b111100 7
b111100 a
b111100 -
b111100 ]
b111100 _
b111000 ;"
b111000 G
b111000 \
b111000 ,
b111000 F
b111000 8"
b111000 L"
b110100 ]"
b110100 M"
b111000 8
b111100 *
b111100 D
b111100 [
b111100 7"
b111000 0
b111000 9
b111000 B
b1110 $
1!
1.
#725
0!
0.
#750
b1000000 7
b1000000 a
b1000000 -
b1000000 ]
b1000000 _
b111000 ]"
b111000 M"
b111100 ;"
b111100 G
b111100 \
b111100 ,
b111100 F
b111100 8"
b111100 L"
b111100 8
b1000000 *
b1000000 D
b1000000 [
b1000000 7"
b111100 0
b111100 9
b111100 B
b1111 $
1!
1.
#775
0!
0.
#800
b1000100 7
b1000100 a
b1000100 -
b1000100 ]
b1000100 _
b1000000 ;"
b1000000 G
b1000000 \
b1000000 ,
b1000000 F
b1000000 8"
b1000000 L"
b111100 ]"
b111100 M"
b1000000 8
b1000100 *
b1000100 D
b1000100 [
b1000100 7"
b1000000 0
b1000000 9
b1000000 B
b10000 $
1!
1.
#825
0!
0.
#850
b1001000 7
b1001000 a
b1001000 -
b1001000 ]
b1001000 _
b1000000 ]"
b1000000 M"
b1000100 ;"
b1000100 G
b1000100 \
b1000100 ,
b1000100 F
b1000100 8"
b1000100 L"
b1000100 8
b1001000 *
b1001000 D
b1001000 [
b1001000 7"
b1000100 0
b1000100 9
b1000100 B
b10001 $
1!
1.
#875
0!
0.
#900
b1001100 7
b1001100 a
b1001100 -
b1001100 ]
b1001100 _
b1001000 ;"
b1001000 G
b1001000 \
b1001000 ,
b1001000 F
b1001000 8"
b1001000 L"
b1000100 ]"
b1000100 M"
b1001000 8
b1001100 *
b1001100 D
b1001100 [
b1001100 7"
b1001000 0
b1001000 9
b1001000 B
b10010 $
1!
1.
#925
0!
0.
#950
b1010000 7
b1010000 a
b1010000 -
b1010000 ]
b1010000 _
b1001000 ]"
b1001000 M"
b1001100 ;"
b1001100 G
b1001100 \
b1001100 ,
b1001100 F
b1001100 8"
b1001100 L"
b1001100 8
b1010000 *
b1010000 D
b1010000 [
b1010000 7"
b1001100 0
b1001100 9
b1001100 B
b10011 $
1!
1.
#975
0!
0.
#1000
b1010100 7
b1010100 a
b1010100 -
b1010100 ]
b1010100 _
b1010000 ;"
b1010000 G
b1010000 \
b1010000 ,
b1010000 F
b1010000 8"
b1010000 L"
b1001100 ]"
b1001100 M"
b1010000 8
b1010100 *
b1010100 D
b1010100 [
b1010100 7"
b1010000 0
b1010000 9
b1010000 B
b10100 $
1!
1.
#1025
0!
0.
#1050
b1011000 7
b1011000 a
b1011000 -
b1011000 ]
b1011000 _
b1010000 ]"
b1010000 M"
b1010100 ;"
b1010100 G
b1010100 \
b1010100 ,
b1010100 F
b1010100 8"
b1010100 L"
b1010100 8
b1011000 *
b1011000 D
b1011000 [
b1011000 7"
b1010100 0
b1010100 9
b1010100 B
b10101 $
1!
1.
#1075
0!
0.
