project1_src/hello.vcd
$date
	Sun Dec 10 01:41:29 2017
$end
$version
	Icarus Verilog
$end
$timescale
	1s
$end
$scope module TestBench $end
$var reg 1 ! Clk $end
$var reg 1 " Reset $end
$var reg 1 # Start $end
$var integer 32 $ counter [31:0] $end
$var integer 32 % flush [31:0] $end
$var integer 32 & i [31:0] $end
$var integer 32 ' outfile [31:0] $end
$var integer 32 ( stall [31:0] $end
$scope module CPU $end
$var wire 1 ! clk_i $end
$var wire 1 " rst_i $end
$var wire 1 # start_i $end
$var wire 32 ) instruction [31:0] $end
$var wire 32 * inst_addr [31:0] $end
$var wire 32 + extended [31:0] $end
$var wire 32 , Mux1_o [31:0] $end
$var wire 32 - IFID_NxtAddr [31:0] $end
$var wire 32 . Dread1 [31:0] $end
$var wire 32 / Add_pc_o [31:0] $end
$scope module ADDER $end
$var wire 32 0 data_o [31:0] $end
$var wire 32 1 data2_in [31:0] $end
$var wire 32 2 data1_in [31:0] $end
$upscope $end
$scope module ALU $end
$var wire 32 3 data2_i [31:0] $end
$var wire 32 4 data1_i [31:0] $end
$var wire 3 5 ALUCtrl_i [2:0] $end
$var reg 32 6 data_o [31:0] $end
$upscope $end
$scope module ALU_Control $end
$var wire 6 7 funct_i [5:0] $end
$var wire 2 8 ALUOp_i [1:0] $end
$var reg 3 9 ALUCtrl_o [2:0] $end
$upscope $end
$scope module Add_PC $end
$var wire 32 : data2_in [31:0] $end
$var wire 32 ; data_o [31:0] $end
$var wire 32 < data1_in [31:0] $end
$upscope $end
$scope module Control $end
$var wire 6 = Op_i [5:0] $end
$var reg 2 > ALUOp_o [1:0] $end
$var reg 1 ? ALUSrc_o $end
$var reg 1 @ Branch_o $end
$var reg 1 A Jump_o $end
$var reg 1 B MemRd_o $end
$var reg 1 C MemWr_o $end
$var reg 1 D MemtoReg_o $end
$var reg 1 E RegDst_o $end
$var reg 1 F RegWr_o $end
$upscope $end
$scope module Data_Memory $end
$var wire 1 ! clk_i $end
$var wire 32 G addr_i [31:0] $end
$var wire 5 H addr [4:0] $end
$var wire 32 I WrData_i [31:0] $end
$var wire 32 J RdData_o [31:0] $end
$var wire 1 K MemWr_i $end
$var wire 1 L MemRd_i $end
$upscope $end
$scope module EXMEM_Reg $end
$var wire 32 M ALUresult_i [31:0] $end
$var wire 32 N ALUresult_o [31:0] $end
$var wire 1 ! clk_i $end
$var wire 1 L memRead_o $end
$var wire 32 O memWriteData_o [31:0] $end
$var wire 1 K memWrite_o $end
$var wire 1 P memtoReg_o $end
$var wire 5 Q regDstAddr_o [4:0] $end
$var wire 1 R writeBack_o $end
$var wire 1 S writeBack_i $end
$var wire 5 T regDstAddr_i [4:0] $end
$var wire 1 U memtoReg_i $end
$var wire 1 V memWrite_i $end
$var wire 32 W memWriteData_i [31:0] $end
$var wire 1 X memRead_i $end
$var reg 32 Y ALUresult [31:0] $end
$var reg 1 Z memRead $end
$var reg 1 K memWrite $end
$var reg 32 [ memWriteData [31:0] $end
$var reg 1 \ memtoReg $end
$var reg 5 ] regDstAddr [4:0] $end
$var reg 1 ^ writeBack $end
$upscope $end
$scope module Eq $end
$var wire 32 _ rd2_i [31:0] $end
$var wire 32 ` rd1_i [31:0] $end
$var wire 1 a eq_o $end
$upscope $end
$scope module FW $end
$var wire 1 R ExMem_Wb_i $end
$var wire 5 b ExMem_rd_i [4:0] $end
$var wire 2 c ForwardA_o [1:0] $end
$var wire 2 d ForwardB_o [1:0] $end
$var wire 5 e MemWb_rd_i [4:0] $end
$var wire 1 f MemWb_Wb_i $end
$var wire 5 g IdEx_rt_i [4:0] $end
$var wire 5 h IdEx_rs_i [4:0] $end
$var reg 2 i ForwardA [1:0] $end
$var reg 2 j ForwardB [1:0] $end
$upscope $end
$scope module HD $end
$var wire 1 k mux_control_o $end
$var wire 1 l pc_stall_o $end
$var wire 1 m stallHold_o $end
$var wire 32 n if_id_reg_i [31:0] $end
$var wire 5 o id_ex_regrt_i [4:0] $end
$var wire 1 X id_ex_memrd_i $end
$var reg 1 k mux_control $end
$var reg 1 p pc_stall $end
$var reg 1 q stallHold $end
$upscope $end
$scope module IDEX_Reg $end
$var wire 2 r ALUOp_o [1:0] $end
$var wire 1 s ALUSrc_o $end
$var wire 1 ! clk_i $end
$var wire 5 t instr15_11_i [4:0] $end
$var wire 5 u instr15_11_o [4:0] $end
$var wire 5 v instr20_16_i [4:0] $end
$var wire 5 w instr20_16_o [4:0] $end
$var wire 5 x instr25_21_i [4:0] $end
$var wire 5 y instr25_21_o [4:0] $end
$var wire 1 X memRead_o $end
$var wire 1 V memWrite_o $end
$var wire 1 U memtoReg_o $end
$var wire 32 z nextInstrAddr_o [31:0] $end
$var wire 32 { reg1Data_o [31:0] $end
$var wire 32 | reg2Data_o [31:0] $end
$var wire 1 } regDst_o $end
$var wire 32 ~ signExtendResult_o [31:0] $end
$var wire 1 S writeBack_o $end
$var wire 1 !" writeBack_i $end
$var wire 32 "" signExtendResult_i [31:0] $end
$var wire 1 #" regDst_i $end
$var wire 32 $" reg2Data_i [31:0] $end
$var wire 32 %" reg1Data_i [31:0] $end
$var wire 32 &" nextInstrAddr_i [31:0] $end
$var wire 1 '" memtoReg_i $end
$var wire 1 (" memWrite_i $end
$var wire 1 )" memRead_i $end
$var wire 1 *" ALUSrc_i $end
$var wire 2 +" ALUOp_i [1:0] $end
$var reg 2 ," ALUOp [1:0] $end
$var reg 1 s ALUSrc $end
$var reg 5 -" instr15_11 [4:0] $end
$var reg 5 ." instr20_16 [4:0] $end
$var reg 5 /" instr25_21 [4:0] $end
$var reg 1 0" memRead $end
$var reg 1 1" memWrite $end
$var reg 1 2" memtoReg $end
$var reg 32 3" nextInstrAddr [31:0] $end
$var reg 32 4" reg1Data [31:0] $end
$var reg 32 5" reg2Data [31:0] $end
$var reg 1 } regDst $end
$var reg 32 6" signExtendResult [31:0] $end
$var reg 1 7" writeBack $end
$upscope $end
$scope module IFID_Reg $end
$var wire 1 ! clk_i $end
$var wire 1 8" flush_i $end
$var wire 32 9" instr_o [31:0] $end
$var wire 32 :" nextInstrAddr_i [31:0] $end
$var wire 32 ;" nextInstrAddr_o [31:0] $end
$var wire 1 m stallHold_i $end
$var wire 32 <" instr_i [31:0] $end
$var reg 32 =" instr [31:0] $end
$var reg 32 >" nextInstrAddr [31:0] $end
$upscope $end
$scope module Instruction_Memory $end
$var wire 32 ?" instr_o [31:0] $end
$var wire 32 @" addr_i [31:0] $end
$upscope $end
$scope module MEMWB_Reg $end
$var wire 32 A" ALUresult_i [31:0] $end
$var wire 32 B" ALUresult_o [31:0] $end
$var wire 1 ! clk_i $end
$var wire 32 C" memReadData_i [31:0] $end
$var wire 32 D" memReadData_o [31:0] $end
$var wire 1 P memtoReg_i $end
$var wire 1 E" memtoReg_o $end
$var wire 5 F" regDstAddr_i [4:0] $end
$var wire 5 G" regDstAddr_o [4:0] $end
$var wire 1 R writeBack_i $end
$var wire 1 f writeBack_o $end
$var reg 32 H" ALUresult [31:0] $end
$var reg 32 I" memReadData [31:0] $end
$var reg 1 E" memtoReg $end
$var reg 5 J" regDstAddr [4:0] $end
$var reg 1 f writeBack $end
$upscope $end
$scope module MUX1 $end
$var wire 32 K" data1_i [31:0] $end
$var wire 32 L" data2_i [31:0] $end
$var wire 1 M" select_i $end
$var wire 32 N" data_o [31:0] $end
$upscope $end
$scope module MUX2 $end
$var wire 32 O" data1_i [31:0] $end
$var wire 32 P" data2_i [31:0] $end
$var wire 1 A select_i $end
$var wire 32 Q" data_o [31:0] $end
$upscope $end
$scope module MUX3 $end
$var wire 5 R" data1_i [4:0] $end
$var wire 5 S" data2_i [4:0] $end
$var wire 1 } select_i $end
$var wire 5 T" data_o [4:0] $end
$upscope $end
$scope module MUX4 $end
$var wire 32 U" data2_i [31:0] $end
$var wire 1 s select_i $end
$var wire 32 V" data_o [31:0] $end
$var wire 32 W" data1_i [31:0] $end
$upscope $end
$scope module MUX5 $end
$var wire 32 X" data1_i [31:0] $end
$var wire 32 Y" data2_i [31:0] $end
$var wire 1 E" select_i $end
$var wire 32 Z" data_o [31:0] $end
$upscope $end
$scope module MUX6 $end
$var wire 32 [" data1_i [31:0] $end
$var wire 32 \" data2_i [31:0] $end
$var wire 32 ]" data3_i [31:0] $end
$var wire 32 ^" data_o [31:0] $end
$var wire 2 _" select_i [1:0] $end
$var reg 32 `" tmp [31:0] $end
$upscope $end
$scope module MUX7 $end
$var wire 32 a" data1_i [31:0] $end
$var wire 32 b" data2_i [31:0] $end
$var wire 32 c" data3_i [31:0] $end
$var wire 2 d" select_i [1:0] $end
$var wire 32 e" data_o [31:0] $end
$var reg 32 f" tmp [31:0] $end
$upscope $end
$scope module MUX8 $end
$var wire 2 g" ALUOp_i [1:0] $end
$var wire 1 ? ALUSrc_i $end
$var wire 1 B MemRd_i $end
$var wire 1 C MemWr_i $end
$var wire 1 D MemtoReg_i $end
$var wire 1 E RegDst_i $end
$var wire 1 F RegWr_i $end
$var wire 1 k select_i $end
$var wire 1 !" RegWr_o $end
$var wire 1 #" RegDst_o $end
$var wire 1 '" MemtoReg_o $end
$var wire 1 (" MemWr_o $end
$var wire 1 )" MemRd_o $end
$var wire 1 *" ALUSrc_o $end
$var wire 2 h" ALUOp_o [1:0] $end
$upscope $end
$scope module PC $end
$var wire 1 ! clk_i $end
$var wire 32 i" pc_i [31:0] $end
$var wire 1 " rst_i $end
$var wire 1 m stallHold_i $end
$var wire 1 # start_i $end
$var reg 32 j" pc_o [31:0] $end
$upscope $end
$scope module Registers $end
$var wire 5 k" RDaddr_i [4:0] $end
$var wire 32 l" RDdata_i [31:0] $end
$var wire 5 m" RSaddr_i [4:0] $end
$var wire 5 n" RTaddr_i [4:0] $end
$var wire 1 f RegWrite_i $end
$var wire 1 ! clk_i $end
$var wire 32 o" RTdata_o [31:0] $end
$var wire 32 p" RSdata_o [31:0] $end
$upscope $end
$scope module Shift_left2628 $end
$var wire 26 q" in_i [25:0] $end
$var wire 28 r" out_o [27:0] $end
$upscope $end
$scope module Shift_left3232 $end
$var wire 32 s" out_o [31:0] $end
$var wire 32 t" in_i [31:0] $end
$upscope $end
$scope module Sign_Extend $end
$var wire 16 u" data_i [15:0] $end
$var wire 32 v" data_o [31:0] $end
$upscope $end
$upscope $end
$upscope $end
$enddefinitions $end
#12
$dumpvars
b0 v"
b0 u"
b0 t"
b0 s"
b0 r"
b0 q"
b0 p"
b0 o"
b0 n"
b0 m"
b0 l"
b0 k"
b0 j"
b100 i"
b0 h"
b0 g"
b0 f"
b0 e"
b0 d"
b0 c"
b0 b"
b0 a"
b0 `"
b0 _"
b0 ^"
b0 ]"
b0 \"
b0 ["
b0 Z"
b0 Y"
b0 X"
b0 W"
b0 V"
b0 U"
b0 T"
b0 S"
b0 R"
b100 Q"
b0 P"
b100 O"
b100 N"
0M"
b0 L"
b100 K"
b0 J"
b0 I"
b0 H"
b0 G"
b0 F"
0E"
b0 D"
b101 C"
b0 B"
b0 A"
b0 @"
b100000000001000000000000000000 ?"
b0 >"
b0 ="
b100000000001000000000000000000 <"
b0 ;"
b100 :"
b0 9"
08"
07"
b0 6"
b0 5"
b0 4"
b0 3"
02"
01"
00"
b0 /"
b0 ."
b0 -"
b0 ,"
b0 +"
0*"
0)"
0("
0'"
b0 &"
b0 %"
b0 $"
1#"
b0 ""
1!"
b0 ~
0}
b0 |
b0 {
b0 z
b0 y
b0 x
b0 w
b0 v
b0 u
b0 t
0s
b0 r
0q
0p
b0 o
b0 n
0m
0l
0k
b0 j
b0 i
b0 h
b0 g
0f
b0 e
b0 d
b0 c
b0 b
1a
b0 `
b0 _
0^
b0 ]
0\
b0 [
0Z
b0 Y
0X
b0 W
0V
0U
b0 T
0S
0R
b0 Q
0P
b0 O
b0 N
bx M
0L
0K
b101 J
b0 I
b0 H
b0 G
1F
1E
0D
0C
0B
0A
0@
0?
b0 >
b0 =
b0 <
b100 ;
b100 :
bx 9
b0 8
b0 7
bx 6
bx 5
b0 4
b0 3
b0 2
b0 1
b0 0
b100 /
b0 .
b0 -
b100 ,
b0 +
b0 *
b0 )
b0 (
b11 '
b100000 &
b0 %
b0 $
1#
1"
0!
$end
#25
b1 +"
b1 h"
1*"
0#"
b100000000000000000000 P"
b100000000000000000000 r"
b1 >
b1 g"
1?
0E
bx J
bx C"
b1000 Q"
b1000 i"
b100 v
b1000000000000000000 q"
b1000 =
b100 n"
bx H
b100000000010000000000000000000 <"
b100000000010000000000000000000 ?"
b1000 ,
b1000 N"
b1000 O"
b100000000001000000000000000000 )
b100000000001000000000000000000 n
b100000000001000000000000000000 9"
b100000000001000000000000000000 ="
b100 0
b100 L"
b100 -
b100 1
b100 &"
b100 ;"
b100 >"
1}
1S
17"
bx G
bx N
bx Y
bx A"
bx ]"
bx c"
b101 D"
b101 I"
b101 Y"
b1000 /
b1000 ;
b1000 :"
b1000 K"
b100 *
b100 <
b100 @"
b100 j"
b1 $
1!
#50
0!
#75
b0 6
b0 M
b1000000000000000000000 P"
b1000000000000000000000 r"
b1100 Q"
b1100 i"
bx Z"
bx \"
bx b"
bx l"
b100 T
b100 T"
b0 5
b0 9
b1000 v
b10000000000000000000 q"
b1000 n"
b100000000010010000000000000001 <"
b100000000010010000000000000001 ?"
b1100 ,
b1100 N"
b1100 O"
bx B"
bx H"
bx X"
bx D"
bx I"
bx Y"
1R
1^
b100 g
b100 o
b100 w
b100 ."
b100 R"
b100 z
b100 3"
0}
b1 8
b1 r
b1 ,"
1s
b100000000010000000000000000000 )
b100000000010000000000000000000 n
b100000000010000000000000000000 9"
b100000000010000000000000000000 ="
b1000 0
b1000 L"
b1000 -
b1000 1
b1000 &"
b1000 ;"
b1000 >"
b1100 /
b1100 ;
b1100 :"
b1100 K"
b1000 *
b1000 <
b1000 @"
b1000 j"
b10 $
1!
#100
0!
#125
b1001000000000000000100 P"
b1001000000000000000100 r"
b100 2
b100 s"
b101 J
b101 C"
b10000 Q"
b10000 i"
b1001 v
b10010000000000000001 q"
b1 +
b1 ""
b1 t"
b1 v"
b1 u"
b1001 n"
b1000 T
b1000 T"
b0 H
b100000000100010000000000000000 <"
b100000000100010000000000000000 ?"
b10000 ,
b10000 N"
b10000 O"
b100000000010010000000000000001 )
b100000000010010000000000000001 n
b100000000010010000000000000001 9"
b100000000010010000000000000001 ="
b10000 0
b10000 L"
b1100 -
b1100 1
b1100 &"
b1100 ;"
b1100 >"
b1000 g
b1000 o
b1000 w
b1000 ."
b1000 R"
b1000 z
b1000 3"
b100 Q
b100 b
b100 F"
b100 ]
b0 G
b0 N
b0 Y
b0 A"
b0 ]"
b0 c"
1f
b10000 /
b10000 ;
b10000 :"
b10000 K"
b1100 *
b1100 <
b1100 @"
b1100 j"
b11 $
1!
#150
0!
#175
b1 6
b1 M
b10001000000000000000000 P"
b10001000000000000000000 r"
b0 2
b0 s"
b10100 Q"
b10100 i"
b0 Z"
b0 \"
b0 b"
b0 l"
b1001 T
b1001 T"
b1 7
b1 3
b1 V"
b10001 v
b100010000000000000000 q"
b0 +
b0 ""
b0 t"
b0 v"
b0 u"
b10001 n"
b100000000100100000000000000001 <"
b100000000100100000000000000001 ?"
b10100 ,
b10100 N"
b10100 O"
b100 e
b100 G"
b100 J"
b100 k"
b0 B"
b0 H"
b0 X"
b101 D"
b101 I"
b101 Y"
b1000 Q
b1000 b
b1000 F"
b1000 ]
b1001 g
b1001 o
b1001 w
b1001 ."
b1001 R"
b1 ~
b1 6"
b1 U"
b1100 z
b1100 3"
b100000000100010000000000000000 )
b100000000100010000000000000000 n
b100000000100010000000000000000 9"
b100000000100010000000000000000 ="
b10000 0
b10000 L"
b10000 -
b10000 1
b10000 &"
b10000 ;"
b10000 >"
b10100 /
b10100 ;
b10100 :"
b10100 K"
b10000 *
b10000 <
b10000 @"
b10000 j"
b100 $
1!
#200
0!
#225
b10010000000000000000100 P"
b10010000000000000000100 r"
b100 2
b100 s"
b0 6
b0 M
b0 J
b0 C"
b11000 Q"
b11000 i"
b10010 v
b100100000000000000001 q"
b1 +
b1 ""
b1 t"
b1 v"
b1 u"
b10010 n"
b10001 T
b10001 T"
b0 7
b0 3
b0 V"
b1 H
b10001100100100000000000000000000 <"
b10001100100100000000000000000000 ?"
b11000 ,
b11000 N"
b11000 O"
b100000000100100000000000000001 )
b100000000100100000000000000001 n
b100000000100100000000000000001 9"
b100000000100100000000000000001 ="
b11000 0
b11000 L"
b10100 -
b10100 1
b10100 &"
b10100 ;"
b10100 >"
b10001 g
b10001 o
b10001 w
b10001 ."
b10001 R"
b0 ~
b0 6"
b0 U"
b10000 z
b10000 3"
b1001 Q
b1001 b
b1001 F"
b1001 ]
b1 G
b1 N
b1 Y
b1 A"
b1 ]"
b1 c"
b1000 e
b1000 G"
b1000 J"
b1000 k"
b11000 /
b11000 ;
b11000 :"
b11000 K"
b10100 *
b10100 <
b10100 @"
b10100 j"
b101 $
1!
#250
0!
#275
1)"
1'"
b101 J
b101 C"
b1 6
b1 M
b10010000000000000000000000 P"
b10010000000000000000000000 r"
b0 2
b0 s"
1B
1D
b11100 Q"
b11100 i"
b1 Z"
b1 \"
b1 b"
b1 l"
b0 H
b10010 T
b10010 T"
b1 7
b1 3
b1 V"
b10000 v
b100 x
b100100000000000000000000 q"
b0 +
b0 ""
b0 t"
b0 v"
b0 u"
b100011 =
b10000 n"
b100 m"
b100010000101000000000000000000 <"
b100010000101000000000000000000 ?"
b11100 ,
b11100 N"
b11100 O"
b1001 e
b1001 G"
b1001 J"
b1001 k"
b1 B"
b1 H"
b1 X"
b0 D"
b0 I"
b0 Y"
b10001 Q
b10001 b
b10001 F"
b10001 ]
b0 G
b0 N
b0 Y
b0 A"
b0 ]"
b0 c"
b10010 g
b10010 o
b10010 w
b10010 ."
b10010 R"
b1 ~
b1 6"
b1 U"
b10100 z
b10100 3"
b10001100100100000000000000000000 )
b10001100100100000000000000000000 n
b10001100100100000000000000000000 9"
b10001100100100000000000000000000 ="
b11000 0
b11000 L"
b11000 -
b11000 1
b11000 &"
b11000 ;"
b11000 >"
b11100 /
b11100 ;
b11100 :"
b11100 K"
b11000 *
b11000 <
b11000 @"
b11000 j"
b110 $
1!
#300
0!
#325
b1000010100000000000000000000 P"
b1000010100000000000000000000 r"
0B
0D
b0 6
b0 M
0*"
0)"
0'"
0!"
b0 +"
b0 h"
b0 J
b0 C"
b100000 Q"
b100000 i"
b10100 v
b10000 x
b10000101000000000000000000 q"
b1000 =
b10100 n"
b10000 m"
b10000 T
b10000 T"
b0 7
b0 3
b0 V"
1k
1l
1p
1m
1q
b1 H
b0 Z"
b0 \"
b0 b"
b0 l"
b10000010011000000000100010 <"
b10000010011000000000100010 ?"
b100000 ,
b100000 N"
b100000 O"
b100010000101000000000000000000 )
b100010000101000000000000000000 n
b100010000101000000000000000000 9"
b100010000101000000000000000000 ="
b11100 0
b11100 L"
b11100 -
b11100 1
b11100 &"
b11100 ;"
b11100 >"
b10000 g
b10000 o
b10000 w
b10000 ."
b10000 R"
b100 h
b100 y
b100 /"
b0 ~
b0 6"
b0 U"
b11000 z
b11000 3"
1X
10"
1U
12"
b10010 Q
b10010 b
b10010 F"
b10010 ]
b1 G
b1 N
b1 Y
b1 A"
b1 ]"
b1 c"
b10001 e
b10001 G"
b10001 J"
b10001 k"
b0 B"
b0 H"
b0 X"
b101 D"
b101 I"
b101 Y"
b100000 /
b100000 ;
b100000 :"
b100000 K"
b11100 *
b11100 <
b11100 @"
b11100 j"
b111 $
1!
#350
0!
#375
b101 J
b101 C"
1*"
1!"
b1 +"
b1 h"
b1 Z"
b1 \"
b1 b"
b1 l"
b0 H
b10100 T
b10100 T"
b10 c
b10 _"
b10 i
0k
0l
0p
0m
0q
b10010 e
b10010 G"
b10010 J"
b10010 k"
b1 B"
b1 H"
b1 X"
b0 D"
b0 I"
b0 Y"
b10000 Q
b10000 b
b10000 F"
b10000 ]
b0 G
b0 N
b0 Y
b0 A"
b0 ]"
b0 c"
1L
1Z
1P
1\
b10100 g
b10100 o
b10100 w
b10100 ."
b10100 R"
b10000 h
b10000 y
b10000 /"
b11100 z
b11100 3"
b0 8
b0 r
b0 ,"
0s
0X
00"
0U
02"
0S
07"
b1000 $
b1 (
1!
#400
0!
#425
b0 +"
b0 h"
0*"
1#"
0a
b101 .
b101 `
b101 %"
b101 p"
b101 6
b101 M
b1000001001100000000010001000 P"
b1000001001100000000010001000 r"
b11111111111111100000000010001000 2
b11111111111111100000000010001000 s"
b0 >
b0 g"
0?
1E
b1 _
b1 $"
b1 o"
b101 4
b101 ^"
b101 `"
b100100 Q"
b100100 i"
b10000 t
b1001 v
b10000010011000000000100010 q"
b11111111111111111000000000100010 +
b11111111111111111000000000100010 ""
b11111111111111111000000000100010 t"
b11111111111111111000000000100010 v"
b1000000000100010 u"
b0 =
b1001 n"
b1 c
b1 _"
b1 i
b101 Z"
b101 \"
b101 b"
b101 l"
b10001100101000100000100000 <"
b10001100101000100000100000 ?"
b100100 ,
b100100 N"
b100100 O"
b10000010011000000000100010 )
b10000010011000000000100010 n
b10000010011000000000100010 9"
b10000010011000000000100010 ="
b11111111111111100000000010101000 0
b11111111111111100000000010101000 L"
b100000 -
b100000 1
b100000 &"
b100000 ;"
b100000 >"
b1 8
b1 r
b1 ,"
1s
1S
17"
b10100 Q
b10100 b
b10100 F"
b10100 ]
0L
0Z
0P
0\
0R
0^
b10000 e
b10000 G"
b10000 J"
b10000 k"
b0 B"
b0 H"
b0 X"
b101 D"
b101 I"
b101 Y"
1E"
b100100 /
b100100 ;
b100100 :"
b100100 K"
b100000 *
b100000 <
b100000 @"
b100000 j"
b1001 $
1!
#450
0!
#475
b100 6
b100 M
b0 .
b0 `
b0 %"
b0 p"
b0 J
b0 C"
b10 5
b10 9
b1 3
b1 V"
b1000110010100010000010000000 P"
b1000110010100010000010000000 r"
b11111111111111100010000010000000 2
b11111111111111100010000010000000 s"
b101000 Q"
b101000 i"
b0 Z"
b0 \"
b0 b"
b0 l"
b101 H
b0 c
b0 _"
b0 i
b100010 7
b1 W
b1 W"
b1 e"
b1 f"
b10000 T
b10000 T"
b10001 t
b10010 v
b10001 x
b10001100101000100000100000 q"
b11111111111111111000100000100000 +
b11111111111111111000100000100000 ""
b11111111111111111000100000100000 t"
b11111111111111111000100000100000 v"
b1000100000100000 u"
b10010 n"
b10001 m"
b100010010100110000000000000000 <"
b100010010100110000000000000000 ?"
b101000 ,
b101000 N"
b101000 O"
b10100 e
b10100 G"
b10100 J"
b10100 k"
0E"
0f
b101 G
b101 N
b101 Y
b101 A"
b101 ]"
b101 c"
1R
1^
b10000 u
b10000 -"
b10000 S"
b1001 g
b1001 o
b1001 w
b1001 ."
b1001 R"
b11111111111111111000000000100010 ~
b11111111111111111000000000100010 6"
b11111111111111111000000000100010 U"
b1 |
b1 a"
b1 5"
b101 {
b101 ["
b101 4"
b100000 z
b100000 3"
1}
b0 8
b0 r
b0 ,"
0s
b10001100101000100000100000 )
b10001100101000100000100000 n
b10001100101000100000100000 9"
b10001100101000100000100000 ="
b11111111111111100010000010100100 0
b11111111111111100010000010100100 L"
b100100 -
b100100 1
b100100 &"
b100100 ;"
b100100 >"
b101000 /
b101000 ;
b101000 :"
b101000 K"
b100100 *
b100100 <
b100100 @"
b100100 j"
b1010 $
1!
#500
0!
#525
b1 +"
b1 h"
1*"
0#"
b1001010011000000000000000000 P"
b1001010011000000000000000000 r"
b0 2
b0 s"
b1 >
b1 g"
1?
0E
b0 _
b0 $"
b0 o"
b1 .
b1 `
b1 %"
b1 p"
b0 5
b0 9
b1 6
b1 M
b101100 Q"
b101100 i"
b0 t
b10011 v
b10010 x
b10010100110000000000000000 q"
b0 +
b0 ""
b0 t"
b0 v"
b0 u"
b1000 =
b10011 n"
b10010 m"
b10001 T
b10001 T"
b100000 7
b100 H
b0 4
b0 ^"
b0 `"
b101 Z"
b101 \"
b101 b"
b101 l"
b100010001100100000000000000000 <"
b100010001100100000000000000000 ?"
b101100 ,
b101100 N"
b101100 O"
b100010010100110000000000000000 )
b100010010100110000000000000000 n
b100010010100110000000000000000 9"
b100010010100110000000000000000 ="
b101000 0
b101000 L"
b101000 -
b101000 1
b101000 &"
b101000 ;"
b101000 >"
b10001 u
b10001 -"
b10001 S"
b10010 g
b10010 o
b10010 w
b10010 ."
b10010 R"
b10001 h
b10001 y
b10001 /"
b11111111111111111000100000100000 ~
b11111111111111111000100000100000 6"
b11111111111111111000100000100000 U"
b0 {
b0 ["
b0 4"
b100100 z
b100100 3"
b10000 Q
b10000 b
b10000 F"
b10000 ]
b1 I
b1 O
b1 [
b100 G
b100 N
b100 Y
b100 A"
b100 ]"
b100 c"
b101 B"
b101 H"
b101 X"
b0 D"
b0 I"
b0 Y"
1f
b101100 /
b101100 ;
b101100 :"
b101100 K"
b101000 *
b101000 <
b101000 @"
b101000 j"
b1011 $
1!
#550
0!
#575
b1000110010000000000000000000 P"
b1000110010000000000000000000 r"
b1 _
b1 $"
b1 o"
b0 .
b0 `
b0 %"
b0 p"
b110000 Q"
b110000 i"
b100 Z"
b100 \"
b100 b"
b100 l"
b1 H
b0 7
b0 W
b0 W"
b0 e"
b0 f"
b1 4
b1 ^"
b1 `"
b10011 T
b10011 T"
b0 3
b0 V"
b10010 v
b10001 x
b10001100100000000000000000 q"
b10010 n"
b10001 m"
b100010011100010000000000000000 <"
b100010011100010000000000000000 ?"
b110000 ,
b110000 N"
b110000 O"
b10000 e
b10000 G"
b10000 J"
b10000 k"
b100 B"
b100 H"
b100 X"
b10001 Q
b10001 b
b10001 F"
b10001 ]
b1 G
b1 N
b1 Y
b1 A"
b1 ]"
b1 c"
b0 u
b0 -"
b0 S"
b10011 g
b10011 o
b10011 w
b10011 ."
b10011 R"
b10010 h
b10010 y
b10010 /"
b0 ~
b0 6"
b0 U"
b0 |
b0 a"
b0 5"
b1 {
b1 ["
b1 4"
b101000 z
b101000 3"
0}
b1 8
b1 r
b1 ,"
1s
b100010001100100000000000000000 )
b100010001100100000000000000000 n
b100010001100100000000000000000 9"
b100010001100100000000000000000 ="
b101100 0
b101100 L"
b101100 -
b101100 1
b101100 &"
b101100 ;"
b101100 >"
b110000 /
b110000 ;
b110000 :"
b110000 K"
b101100 *
b101100 <
b101100 @"
b101100 j"
b1100 $
1!
#600
0!
#625
b0 .
b0 `
b0 %"
b0 p"
b1001110001000000000000000000 P"
b1001110001000000000000000000 r"
b1 _
b1 $"
b1 o"
b110100 Q"
b110100 i"
b10001 v
b10011 x
b10011100010000000000000000 q"
b10001 n"
b10011 m"
b10010 T
b10010 T"
b1 W
b1 W"
b1 e"
b1 f"
b1 c
b1 _"
b1 i
b1 Z"
b1 \"
b1 b"
b1 l"
b10010000010000000000000000001 <"
b10010000010000000000000000001 ?"
b110100 ,
b110100 N"
b110100 O"
b100010011100010000000000000000 )
b100010011100010000000000000000 n
b100010011100010000000000000000 9"
b100010011100010000000000000000 ="
b110000 0
b110000 L"
b110000 -
b110000 1
b110000 &"
b110000 ;"
b110000 >"
b10010 g
b10010 o
b10010 w
b10010 ."
b10010 R"
b10001 h
b10001 y
b10001 /"
b1 |
b1 a"
b1 5"
b0 {
b0 ["
b0 4"
b101100 z
b101100 3"
b10011 Q
b10011 b
b10011 F"
b10011 ]
b0 I
b0 O
b0 [
b10001 e
b10001 G"
b10001 J"
b10001 k"
b1 B"
b1 H"
b1 X"
b110100 /
b110100 ;
b110100 :"
b110100 K"
b110000 *
b110000 <
b110000 @"
b110000 j"
b1101 $
1!
#650
0!
#675
b0 _
b0 $"
b0 o"
b10 +"
b10 h"
0!"
0*"
b1000001000000000000000000100 P"
b1000001000000000000000000100 r"
b100 2
b100 s"
b10 >
b10 g"
1@
0F
0?
b100 .
b100 `
b100 %"
b100 p"
b111000 Q"
b111000 i"
b10001 T
b10001 T"
b1 c
b1 _"
b1 i
b1000 v
b10000 x
b10000010000000000000000001 q"
b1 +
b1 ""
b1 t"
b1 v"
b1 u"
b100 =
b1000 n"
b10000 m"
b1000000000000000000000000111 <"
b1000000000000000000000000111 ?"
b111000 ,
b111000 N"
b111000 O"
b10011 e
b10011 G"
b10011 J"
b10011 k"
b10010 Q
b10010 b
b10010 F"
b10010 ]
b1 I
b1 O
b1 [
b10001 g
b10001 o
b10001 w
b10001 ."
b10001 R"
b10011 h
b10011 y
b10011 /"
b110000 z
b110000 3"
b10010000010000000000000000001 )
b10010000010000000000000000001 n
b10010000010000000000000000001 9"
b10010000010000000000000000001 ="
b111000 0
b111000 L"
b110100 -
b110100 1
b110100 &"
b110100 ;"
b110100 >"
b111000 /
b111000 ;
b111000 :"
b111000 K"
b110100 *
b110100 <
b110100 @"
b110100 j"
b1110 $
1!
#700
0!
