project1_src/hello.vcd
$date
	Sat Dec  9 01:37:25 2017
$end
$version
	Icarus Verilog
$end
$timescale
	1s
$end
$scope module TestBench $end
$var reg 1 ! Clk $end
$var reg 1 " Reset $end
$var reg 1 # Start $end
$var integer 32 $ counter [31:0] $end
$var integer 32 % flush [31:0] $end
$var integer 32 & i [31:0] $end
$var integer 32 ' outfile [31:0] $end
$var integer 32 ( stall [31:0] $end
$scope module CPU $end
$var wire 1 ! clk_i $end
$var wire 1 " rst_i $end
$var wire 1 # start_i $end
$var wire 32 ) instruction [31:0] $end
$var wire 32 * inst_addr [31:0] $end
$var wire 32 + extended [31:0] $end
$var wire 32 , Mux1_o [31:0] $end
$var wire 32 - IFID_NxtAddr [31:0] $end
$var wire 32 . Dread1 [31:0] $end
$var wire 32 / Add_pc_o [31:0] $end
$scope module ADDER $end
$var wire 32 0 data_o [31:0] $end
$var wire 32 1 data2_in [31:0] $end
$var wire 32 2 data1_in [31:0] $end
$upscope $end
$scope module ALU $end
$var wire 32 3 data2_i [31:0] $end
$var wire 32 4 data1_i [31:0] $end
$var wire 3 5 ALUCtrl_i [2:0] $end
$var reg 32 6 data_o [31:0] $end
$upscope $end
$scope module ALU_Control $end
$var wire 6 7 funct_i [5:0] $end
$var wire 2 8 ALUOp_i [1:0] $end
$var reg 3 9 ALUCtrl_o [2:0] $end
$upscope $end
$scope module Add_PC $end
$var wire 32 : data2_in [31:0] $end
$var wire 32 ; data_o [31:0] $end
$var wire 32 < data1_in [31:0] $end
$upscope $end
$scope module Control $end
$var wire 6 = Op_i [5:0] $end
$var reg 2 > ALUOp_o [1:0] $end
$var reg 1 ? ALUSrc_o $end
$var reg 1 @ Branch_o $end
$var reg 1 A Jump_o $end
$var reg 1 B MemRd_o $end
$var reg 1 C MemWr_o $end
$var reg 1 D MemtoReg_o $end
$var reg 1 E RegDst_o $end
$var reg 1 F RegWr_o $end
$upscope $end
$scope module Data_Memory $end
$var wire 32 G RdData_o [31:0] $end
$var wire 32 H addr_i [31:0] $end
$var wire 5 I addr [4:0] $end
$var wire 32 J WrData_i [31:0] $end
$var wire 1 K MemWr_i $end
$var wire 1 L MemRd_i $end
$var reg 32 M tmp [31:0] $end
$upscope $end
$scope module EXMEM_Reg $end
$var wire 32 N ALUresult_i [31:0] $end
$var wire 32 O ALUresult_o [31:0] $end
$var wire 1 ! clk_i $end
$var wire 1 L memRead_o $end
$var wire 32 P memWriteData_o [31:0] $end
$var wire 1 K memWrite_o $end
$var wire 1 Q memtoReg_o $end
$var wire 5 R regDstAddr_o [4:0] $end
$var wire 1 S writeBack_o $end
$var wire 1 T writeBack_i $end
$var wire 5 U regDstAddr_i [4:0] $end
$var wire 1 V memtoReg_i $end
$var wire 1 W memWrite_i $end
$var wire 32 X memWriteData_i [31:0] $end
$var wire 1 Y memRead_i $end
$var reg 32 Z ALUresult [31:0] $end
$var reg 1 [ memRead $end
$var reg 1 \ memWrite $end
$var reg 32 ] memWriteData [31:0] $end
$var reg 1 ^ memtoReg $end
$var reg 5 _ regDstAddr [4:0] $end
$var reg 1 ` writeBack $end
$upscope $end
$scope module Eq $end
$var wire 32 a rd2_i [31:0] $end
$var wire 32 b rd1_i [31:0] $end
$var wire 1 c eq_o $end
$upscope $end
$scope module FW $end
$var wire 1 S ExMem_Wb_i $end
$var wire 5 d ExMem_rd_i [4:0] $end
$var wire 2 e ForwardA_o [1:0] $end
$var wire 2 f ForwardB_o [1:0] $end
$var wire 5 g MemWb_rd_i [4:0] $end
$var wire 1 h MemWb_Wb_i $end
$var wire 5 i IdEx_rt_i [4:0] $end
$var wire 5 j IdEx_rs_i [4:0] $end
$var reg 2 k ForwardA [1:0] $end
$var reg 2 l ForwardB [1:0] $end
$upscope $end
$scope module HD $end
$var wire 1 m mux_control_o $end
$var wire 1 n pc_stall_o $end
$var wire 1 o stallHold_o $end
$var wire 32 p if_id_reg_i [31:0] $end
$var wire 5 q id_ex_regrt_i [4:0] $end
$var wire 1 Y id_ex_memrd_i $end
$var reg 1 m mux_control $end
$var reg 1 r pc_stall $end
$var reg 1 s stallHold $end
$upscope $end
$scope module IDEX_Reg $end
$var wire 2 t ALUOp_o [1:0] $end
$var wire 1 u ALUSrc_o $end
$var wire 1 ! clk_i $end
$var wire 5 v instr15_11_i [4:0] $end
$var wire 5 w instr15_11_o [4:0] $end
$var wire 5 x instr20_16_i [4:0] $end
$var wire 5 y instr20_16_o [4:0] $end
$var wire 5 z instr25_21_i [4:0] $end
$var wire 5 { instr25_21_o [4:0] $end
$var wire 1 Y memRead_o $end
$var wire 1 W memWrite_o $end
$var wire 1 V memtoReg_o $end
$var wire 32 | nextInstrAddr_o [31:0] $end
$var wire 32 } reg1Data_o [31:0] $end
$var wire 32 ~ reg2Data_o [31:0] $end
$var wire 1 !" regDst_o $end
$var wire 32 "" signExtendResult_o [31:0] $end
$var wire 1 T writeBack_o $end
$var wire 1 #" writeBack_i $end
$var wire 32 $" signExtendResult_i [31:0] $end
$var wire 1 %" regDst_i $end
$var wire 32 &" reg2Data_i [31:0] $end
$var wire 32 '" reg1Data_i [31:0] $end
$var wire 32 (" nextInstrAddr_i [31:0] $end
$var wire 1 )" memtoReg_i $end
$var wire 1 *" memWrite_i $end
$var wire 1 +" memRead_i $end
$var wire 1 ," ALUSrc_i $end
$var wire 2 -" ALUOp_i [1:0] $end
$var reg 2 ." ALUOp [1:0] $end
$var reg 1 u ALUSrc $end
$var reg 5 /" instr15_11 [4:0] $end
$var reg 5 0" instr20_16 [4:0] $end
$var reg 5 1" instr25_21 [4:0] $end
$var reg 1 2" memRead $end
$var reg 1 3" memWrite $end
$var reg 1 4" memtoReg $end
$var reg 32 5" nextInstrAddr [31:0] $end
$var reg 32 6" reg1Data [31:0] $end
$var reg 32 7" reg2Data [31:0] $end
$var reg 1 !" regDst $end
$var reg 32 8" signExtendResult [31:0] $end
$var reg 1 9" writeBack $end
$upscope $end
$scope module IFID_Reg $end
$var wire 1 ! clk_i $end
$var wire 1 :" flush_i $end
$var wire 32 ;" instr_o [31:0] $end
$var wire 32 <" nextInstrAddr_i [31:0] $end
$var wire 32 =" nextInstrAddr_o [31:0] $end
$var wire 1 o stallHold_i $end
$var wire 32 >" instr_i [31:0] $end
$var reg 32 ?" instr [31:0] $end
$var reg 32 @" nextInstrAddr [31:0] $end
$upscope $end
$scope module Instruction_Memory $end
$var wire 32 A" instr_o [31:0] $end
$var wire 32 B" addr_i [31:0] $end
$upscope $end
$scope module MEMWB_Reg $end
$var wire 32 C" ALUresult_i [31:0] $end
$var wire 32 D" ALUresult_o [31:0] $end
$var wire 1 ! clk_i $end
$var wire 32 E" memReadData_i [31:0] $end
$var wire 32 F" memReadData_o [31:0] $end
$var wire 1 Q memtoReg_i $end
$var wire 1 G" memtoReg_o $end
$var wire 5 H" regDstAddr_i [4:0] $end
$var wire 5 I" regDstAddr_o [4:0] $end
$var wire 1 S writeBack_i $end
$var wire 1 h writeBack_o $end
$var reg 32 J" ALUresult [31:0] $end
$var reg 32 K" memReadData [31:0] $end
$var reg 1 G" memtoReg $end
$var reg 5 L" regDstAddr [4:0] $end
$var reg 1 M" writeBack $end
$upscope $end
$scope module MUX1 $end
$var wire 32 N" data1_i [31:0] $end
$var wire 32 O" data2_i [31:0] $end
$var wire 1 P" select_i $end
$var wire 32 Q" data_o [31:0] $end
$upscope $end
$scope module MUX2 $end
$var wire 32 R" data1_i [31:0] $end
$var wire 32 S" data2_i [31:0] $end
$var wire 1 A select_i $end
$var wire 32 T" data_o [31:0] $end
$upscope $end
$scope module MUX3 $end
$var wire 5 U" data1_i [4:0] $end
$var wire 5 V" data2_i [4:0] $end
$var wire 1 !" select_i $end
$var wire 5 W" data_o [4:0] $end
$upscope $end
$scope module MUX4 $end
$var wire 32 X" data2_i [31:0] $end
$var wire 1 u select_i $end
$var wire 32 Y" data_o [31:0] $end
$var wire 32 Z" data1_i [31:0] $end
$upscope $end
$scope module MUX5 $end
$var wire 32 [" data1_i [31:0] $end
$var wire 32 \" data2_i [31:0] $end
$var wire 1 G" select_i $end
$var wire 32 ]" data_o [31:0] $end
$upscope $end
$scope module MUX6 $end
$var wire 32 ^" data1_i [31:0] $end
$var wire 32 _" data2_i [31:0] $end
$var wire 32 `" data3_i [31:0] $end
$var wire 32 a" data_o [31:0] $end
$var wire 2 b" select_i [1:0] $end
$var reg 32 c" tmp [31:0] $end
$upscope $end
$scope module MUX7 $end
$var wire 32 d" data1_i [31:0] $end
$var wire 32 e" data2_i [31:0] $end
$var wire 32 f" data3_i [31:0] $end
$var wire 2 g" select_i [1:0] $end
$var wire 32 h" data_o [31:0] $end
$var reg 32 i" tmp [31:0] $end
$upscope $end
$scope module MUX8 $end
$var wire 2 j" ALUOp_i [1:0] $end
$var wire 1 ? ALUSrc_i $end
$var wire 1 B MemRd_i $end
$var wire 1 C MemWr_i $end
$var wire 1 D MemtoReg_i $end
$var wire 1 E RegDst_i $end
$var wire 1 F RegWr_i $end
$var wire 1 m select_i $end
$var wire 1 #" RegWr_o $end
$var wire 1 %" RegDst_o $end
$var wire 1 )" MemtoReg_o $end
$var wire 1 *" MemWr_o $end
$var wire 1 +" MemRd_o $end
$var wire 1 ," ALUSrc_o $end
$var wire 2 k" ALUOp_o [1:0] $end
$upscope $end
$scope module PC $end
$var wire 1 ! clk_i $end
$var wire 32 l" pc_i [31:0] $end
$var wire 1 " rst_i $end
$var wire 1 # start_i $end
$var reg 32 m" pc_o [31:0] $end
$upscope $end
$scope module Registers $end
$var wire 5 n" RDaddr_i [4:0] $end
$var wire 32 o" RDdata_i [31:0] $end
$var wire 5 p" RSaddr_i [4:0] $end
$var wire 32 q" RSdata_o [31:0] $end
$var wire 5 r" RTaddr_i [4:0] $end
$var wire 32 s" RTdata_o [31:0] $end
$var wire 1 h RegWrite_i $end
$var wire 1 ! clk_i $end
$var reg 32 t" RSdata [31:0] $end
$var reg 32 u" RTdata [31:0] $end
$upscope $end
$scope module Shift_left2628 $end
$var wire 26 v" in_i [25:0] $end
$var wire 28 w" out_o [27:0] $end
$upscope $end
$scope module Shift_left3232 $end
$var wire 32 x" out_o [31:0] $end
$var wire 32 y" in_i [31:0] $end
$upscope $end
$scope module Sign_Extend $end
$var wire 16 z" data_i [15:0] $end
$var wire 32 {" data_o [31:0] $end
$upscope $end
$upscope $end
$upscope $end
$enddefinitions $end
#12
$dumpvars
bx {"
bx z"
bx y"
bx00 x"
bx00 w"
bx v"
bx u"
bx t"
bx s"
bx r"
bx q"
bx p"
b0 o"
b0 n"
b0 m"
b100 l"
b0 k"
b0 j"
b0 i"
b0 h"
b0 g"
bx f"
b0 e"
b0 d"
b0 c"
b0 b"
b0 a"
bx `"
b0 _"
b0 ^"
b0 ]"
bx \"
b0 ["
b0 Z"
bx0000000000000000 Y"
bx0000000000000000 X"
b0 W"
b0 V"
b0 U"
b100 T"
b0xxxxxxxxxxxxxxxxxxxxxxxxxx00 S"
b100 R"
b100 Q"
0P"
bx O"
b100 N"
0M"
b0 L"
bx K"
b0 J"
b0 I"
b0 H"
0G"
bx F"
bx E"
b0 D"
bx C"
b0 B"
b100000000010010000000000001010 A"
bx @"
bx ?"
b100000000010010000000000001010 >"
bx ="
b100 <"
bx ;"
0:"
x9"
bx0000000000000000 8"
b0 7"
b0 6"
b0 5"
x4"
x3"
x2"
b0 1"
b0 0"
b0 /"
bx ."
b0 -"
0,"
0+"
0*"
0)"
bx ("
bx '"
bx &"
1%"
bx $"
1#"
bx0000000000000000 ""
x!"
b0 ~
b0 }
b0 |
b0 {
bx z
b0 y
bx x
b0 w
bx v
xu
bx t
0s
0r
b0 q
bx p
0o
0n
0m
b0 l
b0 k
b0 j
b0 i
0h
b0 g
b0 f
b0 e
b0 d
xc
bx b
bx a
0`
b0 _
0^
bx ]
0\
0[
bx Z
xY
b0 X
xW
xV
b0 U
xT
0S
b0 R
0Q
bx P
bx O
bx N
bx M
0L
0K
bx J
bx I
bx H
bx G
1F
1E
0D
0C
0B
0A
0@
0?
b0 >
bx =
b0 <
b100 ;
b100 :
bx 9
bx 8
b0 7
bx 6
bx 5
b0 4
bx0000000000000000 3
bx00 2
bx 1
bx 0
b100 /
bx .
bx -
b100 ,
bx +
b0 *
bx )
b0 (
b11 '
b100000 &
b0 %
b0 $
1#
1"
1!
$end
#25
0!
#50
b101100 0
b101100 O"
b1 -"
b1 k"
1,"
0%"
1c
b1001000000000000101000 S"
b1001000000000000101000 w"
b101000 2
b101000 x"
b1 >
b1 j"
1?
0E
b0 a
b0 &"
b0 s"
b0 u"
b0 .
b0 b
b0 '"
b0 q"
b0 t"
b1000 T"
b1000 l"
bx ]"
bx _"
bx e"
bx o"
bx 7
bx X
bx Z"
bx h"
bx i"
bx 4
bx a"
bx c"
bx U
bx W"
bx 3
bx Y"
b0 v
b1001 x
b0 z
b10010000000000001010 v"
b1010 +
b1010 $"
b1010 y"
b1010 {"
b1010 z"
b1000 =
b1001 r"
b0 p"
b10101100000010010000000000000100 >"
b10101100000010010000000000000100 A"
b1000 ,
b1000 Q"
b1000 R"
bx D"
bx J"
bx ["
b0 J
b0 P
b0 ]
xK
x\
xL
x[
xQ
x^
xS
x`
bx w
bx /"
bx V"
bx i
bx q
bx y
bx 0"
bx U"
bx j
bx {
bx 1"
bx ""
bx 8"
bx X"
bx ~
bx d"
bx 7"
bx }
bx ^"
bx 6"
bx |
bx 5"
1!"
b0 8
b0 t
b0 ."
0u
0W
03"
0Y
02"
0V
04"
1T
19"
b100000000010010000000000001010 )
b100000000010010000000000001010 p
b100000000010010000000000001010 ;"
b100000000010010000000000001010 ?"
b100 -
b100 1
b100 ("
b100 ="
b100 @"
b1000 /
b1000 ;
b1000 <"
b1000 N"
b100 *
b100 <
b100 B"
b100 m"
b1 $
1!
#75
0!
#100
1*"
0#"
b1001000000000000010000 S"
b1001000000000000010000 w"
b10000 2
b10000 x"
1C
0F
b1010 6
b1010 N
b1100 T"
b1100 l"
b10010000000000000100 v"
b100 +
b100 $"
b100 y"
b100 {"
b100 z"
b101011 =
b1010 7
b0 X
b0 Z"
b0 h"
b0 i"
b0 4
b0 a"
b0 c"
b1001 U
b1001 W"
b0 5
b0 9
b1010 3
b1010 Y"
b10001100000010100000000000000100 >"
b10001100000010100000000000000100 A"
b1100 ,
b1100 Q"
b1100 R"
b10101100000010010000000000000100 )
b10101100000010010000000000000100 p
b10101100000010010000000000000100 ;"
b10101100000010010000000000000100 ?"
b11000 0
b11000 O"
b1000 -
b1000 1
b1000 ("
b1000 ="
b1000 @"
b0 w
b0 /"
b0 V"
b1001 i
b1001 q
b1001 y
b1001 0"
b1001 U"
b0 j
b0 {
b0 1"
b1010 ""
b1010 8"
b1010 X"
b0 ~
b0 d"
b0 7"
b0 }
b0 ^"
b0 6"
b100 |
b100 5"
0!"
b1 8
b1 t
b1 ."
1u
bx R
bx d
bx H"
bx _
bx J
bx P
bx ]
0K
0\
0L
0[
0Q
0^
1S
1`
xG"
xh
xM"
b1100 /
b1100 ;
b1100 <"
b1100 N"
b1000 *
b1000 <
b1000 B"
b1000 m"
b10 $
1!
#125
0!
#150
1+"
0*"
1#"
1)"
b1010 X
b1010 Z"
b1010 h"
b1010 i"
b100 6
b100 N
b1010000000000000010000 S"
b1010000000000000010000 w"
1B
0C
1F
1D
b10000 T"
b10000 l"
b10 f
b10 g"
b10 l
b1010 I
b100 7
b100 3
b100 Y"
b1010 x
b10100000000000000100 v"
b100011 =
b1010 r"
b0 >"
b0 A"
b10000 ,
b10000 Q"
b10000 R"
bx g
bx I"
bx n"
bx L"
0G"
1h
1M"
b1001 R
b1001 d
b1001 H"
b1001 _
b0 J
b0 P
b0 ]
b1010 H
b1010 O
b1010 Z
b1010 C"
b1010 `"
b1010 f"
b100 ""
b100 8"
b100 X"
b1000 |
b1000 5"
1W
13"
0T
09"
b10001100000010100000000000000100 )
b10001100000010100000000000000100 p
b10001100000010100000000000000100 ;"
b10001100000010100000000000000100 ?"
b11100 0
b11100 O"
b1100 -
b1100 1
b1100 ("
b1100 ="
b1100 @"
b10000 /
b10000 ;
b10000 <"
b10000 N"
b1100 *
b1100 <
b1100 B"
b1100 m"
b11 $
1!
#175
0!
#200
b0 -"
b0 k"
0+"
0)"
0,"
1%"
b0 S"
b0 w"
b0 2
b0 x"
b0 >
b0 j"
0B
0D
0?
1E
b10100 T"
b10100 l"
b0 x
b0 v"
b0 +
b0 $"
b0 y"
b0 {"
b0 z"
b0 =
b0 r"
b1010 U
b1010 W"
b100 I
b0 X
b0 Z"
b0 h"
b0 i"
b0 f
b0 g"
b0 l
b1010 ]"
b1010 _"
b1010 e"
b1010 o"
b10100 ,
b10100 Q"
b10100 R"
b0 )
b0 p
b0 ;"
b0 ?"
b10000 0
b10000 O"
b10000 -
b10000 1
b10000 ("
b10000 ="
b10000 @"
b1010 i
b1010 q
b1010 y
b1010 0"
b1010 U"
b1100 |
b1100 5"
0W
03"
1Y
12"
1V
14"
1T
19"
b1010 J
b1010 P
b1010 ]
b100 H
b100 O
b100 Z
b100 C"
b100 `"
b100 f"
1K
1\
0S
0`
b1001 g
b1001 I"
b1001 n"
b1001 L"
b1010 D"
b1010 J"
b1010 ["
b10100 /
b10100 ;
b10100 <"
b10100 N"
b10000 *
b10000 <
b10000 B"
b10000 m"
b100 $
1!
#225
0!
#250
b0 6
b0 N
b11000 T"
b11000 l"
b100 ]"
b100 _"
b100 e"
b100 o"
b1010 G
b1010 E"
b1010 M
b0 7
b0 U
b0 W"
b0 3
b0 Y"
b11000 ,
b11000 Q"
b11000 R"
b100 D"
b100 J"
b100 ["
0h
0M"
b1010 R
b1010 d
b1010 H"
b1010 _
b0 J
b0 P
b0 ]
0K
0\
1L
1[
1Q
1^
1S
1`
b0 i
b0 q
b0 y
b0 0"
b0 U"
b0 ""
b0 8"
b0 X"
b10000 |
b10000 5"
1!"
b0 8
b0 t
b0 ."
0u
0Y
02"
0V
04"
b10100 0
b10100 O"
b10100 -
b10100 1
b10100 ("
b10100 ="
b10100 @"
b11000 /
b11000 ;
b11000 <"
b11000 N"
b10100 *
b10100 <
b10100 B"
b10100 m"
b101 $
1!
#275
0!
#300
b11100 T"
b11100 l"
b0 I
b1010 ]"
b1010 _"
b1010 e"
b1010 o"
b11100 ,
b11100 Q"
b11100 R"
b11000 0
b11000 O"
b11000 -
b11000 1
b11000 ("
b11000 ="
b11000 @"
b10100 |
b10100 5"
b0 R
b0 d
b0 H"
b0 _
b0 H
b0 O
b0 Z
b0 C"
b0 `"
b0 f"
0L
0[
0Q
0^
b1010 g
b1010 I"
b1010 n"
b1010 L"
b1010 F"
b1010 K"
b1010 \"
1G"
1h
1M"
b11100 /
b11100 ;
b11100 <"
b11100 N"
b11000 *
b11000 <
b11000 B"
b11000 m"
b110 $
1!
#325
0!
#350
b100000 T"
b100000 l"
b0 ]"
b0 _"
b0 e"
b0 o"
b100000 ,
b100000 Q"
b100000 R"
b0 g
b0 I"
b0 n"
b0 L"
b0 D"
b0 J"
b0 ["
0G"
b11000 |
b11000 5"
b11100 0
b11100 O"
b11100 -
b11100 1
b11100 ("
b11100 ="
b11100 @"
b100000 /
b100000 ;
b100000 <"
b100000 N"
b11100 *
b11100 <
b11100 B"
b11100 m"
b111 $
1!
#375
0!
#400
b100100 T"
b100100 l"
b100100 ,
b100100 Q"
b100100 R"
b100000 0
b100000 O"
b100000 -
b100000 1
b100000 ("
b100000 ="
b100000 @"
b11100 |
b11100 5"
b100100 /
b100100 ;
b100100 <"
b100100 N"
b100000 *
b100000 <
b100000 B"
b100000 m"
b1000 $
1!
#425
0!
#450
b101000 T"
b101000 l"
b101000 ,
b101000 Q"
b101000 R"
b100000 |
b100000 5"
b100100 0
b100100 O"
b100100 -
b100100 1
b100100 ("
b100100 ="
b100100 @"
b101000 /
b101000 ;
b101000 <"
b101000 N"
b100100 *
b100100 <
b100100 B"
b100100 m"
b1001 $
1!
#475
0!
#500
b101100 T"
b101100 l"
b101100 ,
b101100 Q"
b101100 R"
b101000 0
b101000 O"
b101000 -
b101000 1
b101000 ("
b101000 ="
b101000 @"
b100100 |
b100100 5"
b101100 /
b101100 ;
b101100 <"
b101100 N"
b101000 *
b101000 <
b101000 B"
b101000 m"
b1010 $
1!
#525
0!
#550
b110000 T"
b110000 l"
b110000 ,
b110000 Q"
b110000 R"
b101000 |
b101000 5"
b101100 0
b101100 O"
b101100 -
b101100 1
b101100 ("
b101100 ="
b101100 @"
b110000 /
b110000 ;
b110000 <"
b110000 N"
b101100 *
b101100 <
b101100 B"
b101100 m"
b1011 $
1!
#575
0!
#600
b110100 T"
b110100 l"
b110100 ,
b110100 Q"
b110100 R"
b110000 0
b110000 O"
b110000 -
b110000 1
b110000 ("
b110000 ="
b110000 @"
b101100 |
b101100 5"
b110100 /
b110100 ;
b110100 <"
b110100 N"
b110000 *
b110000 <
b110000 B"
b110000 m"
b1100 $
1!
#625
0!
#650
b111000 T"
b111000 l"
b111000 ,
b111000 Q"
b111000 R"
b110000 |
b110000 5"
b110100 0
b110100 O"
b110100 -
b110100 1
b110100 ("
b110100 ="
b110100 @"
b111000 /
b111000 ;
b111000 <"
b111000 N"
b110100 *
b110100 <
b110100 B"
b110100 m"
b1101 $
1!
#675
0!
#700
b111100 T"
b111100 l"
b111100 ,
b111100 Q"
b111100 R"
b111000 0
b111000 O"
b111000 -
b111000 1
b111000 ("
b111000 ="
b111000 @"
b110100 |
b110100 5"
b111100 /
b111100 ;
b111100 <"
b111100 N"
b111000 *
b111000 <
b111000 B"
b111000 m"
b1110 $
1!
#725
0!
#750
b1000000 T"
b1000000 l"
b1000000 ,
b1000000 Q"
b1000000 R"
b111000 |
b111000 5"
b111100 0
b111100 O"
b111100 -
b111100 1
b111100 ("
b111100 ="
b111100 @"
b1000000 /
b1000000 ;
b1000000 <"
b1000000 N"
b111100 *
b111100 <
b111100 B"
b111100 m"
b1111 $
1!
#775
0!
#800
b1000100 T"
b1000100 l"
b1000100 ,
b1000100 Q"
b1000100 R"
b1000000 0
b1000000 O"
b1000000 -
b1000000 1
b1000000 ("
b1000000 ="
b1000000 @"
b111100 |
b111100 5"
b1000100 /
b1000100 ;
b1000100 <"
b1000100 N"
b1000000 *
b1000000 <
b1000000 B"
b1000000 m"
b10000 $
1!
#825
0!
#850
b1001000 T"
b1001000 l"
b1001000 ,
b1001000 Q"
b1001000 R"
b1000000 |
b1000000 5"
b1000100 0
b1000100 O"
b1000100 -
b1000100 1
b1000100 ("
b1000100 ="
b1000100 @"
b1001000 /
b1001000 ;
b1001000 <"
b1001000 N"
b1000100 *
b1000100 <
b1000100 B"
b1000100 m"
b10001 $
1!
#875
0!
#900
b1001100 T"
b1001100 l"
b1001100 ,
b1001100 Q"
b1001100 R"
b1001000 0
b1001000 O"
b1001000 -
b1001000 1
b1001000 ("
b1001000 ="
b1001000 @"
b1000100 |
b1000100 5"
b1001100 /
b1001100 ;
b1001100 <"
b1001100 N"
b1001000 *
b1001000 <
b1001000 B"
b1001000 m"
b10010 $
1!
#925
0!
#950
b1010000 T"
b1010000 l"
b1010000 ,
b1010000 Q"
b1010000 R"
b1001000 |
b1001000 5"
b1001100 0
b1001100 O"
b1001100 -
b1001100 1
b1001100 ("
b1001100 ="
b1001100 @"
b1010000 /
b1010000 ;
b1010000 <"
b1010000 N"
b1001100 *
b1001100 <
b1001100 B"
b1001100 m"
b10011 $
1!
#975
0!
#1000
b1010100 T"
b1010100 l"
b1010100 ,
b1010100 Q"
b1010100 R"
b1010000 0
b1010000 O"
b1010000 -
b1010000 1
b1010000 ("
b1010000 ="
b1010000 @"
b1001100 |
b1001100 5"
b1010100 /
b1010100 ;
b1010100 <"
b1010100 N"
b1010000 *
b1010000 <
b1010000 B"
b1010000 m"
b10100 $
1!
#1025
0!
#1050
b1011000 T"
b1011000 l"
b1011000 ,
b1011000 Q"
b1011000 R"
b1010000 |
b1010000 5"
b1010100 0
b1010100 O"
b1010100 -
b1010100 1
b1010100 ("
b1010100 ="
b1010100 @"
b1011000 /
b1011000 ;
b1011000 <"
b1011000 N"
b1010100 *
b1010100 <
b1010100 B"
b1010100 m"
b10101 $
1!
#1075
0!
#1100
b1011100 T"
b1011100 l"
b1011100 ,
b1011100 Q"
b1011100 R"
b1011000 0
b1011000 O"
b1011000 -
b1011000 1
b1011000 ("
b1011000 ="
b1011000 @"
b1010100 |
b1010100 5"
b1011100 /
b1011100 ;
b1011100 <"
b1011100 N"
b1011000 *
b1011000 <
b1011000 B"
b1011000 m"
b10110 $
1!
#1125
0!
#1150
b1100000 T"
b1100000 l"
b1100000 ,
b1100000 Q"
b1100000 R"
b1011000 |
b1011000 5"
b1011100 0
b1011100 O"
b1011100 -
b1011100 1
b1011100 ("
b1011100 ="
b1011100 @"
b1100000 /
b1100000 ;
b1100000 <"
b1100000 N"
b1011100 *
b1011100 <
b1011100 B"
b1011100 m"
b10111 $
1!
#1175
0!
#1200
b1100100 T"
b1100100 l"
b1100100 ,
b1100100 Q"
b1100100 R"
b1100000 0
b1100000 O"
b1100000 -
b1100000 1
b1100000 ("
b1100000 ="
b1100000 @"
b1011100 |
b1011100 5"
b1100100 /
b1100100 ;
b1100100 <"
b1100100 N"
b1100000 *
b1100000 <
b1100000 B"
b1100000 m"
b11000 $
1!
#1225
0!
#1250
b1101000 T"
b1101000 l"
b1101000 ,
b1101000 Q"
b1101000 R"
b1100000 |
b1100000 5"
b1100100 0
b1100100 O"
b1100100 -
b1100100 1
b1100100 ("
b1100100 ="
b1100100 @"
b1101000 /
b1101000 ;
b1101000 <"
b1101000 N"
b1100100 *
b1100100 <
b1100100 B"
b1100100 m"
b11001 $
1!
#1275
0!
#1300
b1101100 T"
b1101100 l"
b1101100 ,
b1101100 Q"
b1101100 R"
b1101000 0
b1101000 O"
b1101000 -
b1101000 1
b1101000 ("
b1101000 ="
b1101000 @"
b1100100 |
b1100100 5"
b1101100 /
b1101100 ;
b1101100 <"
b1101100 N"
b1101000 *
b1101000 <
b1101000 B"
b1101000 m"
b11010 $
1!
#1325
0!
#1350
b1110000 T"
b1110000 l"
b1110000 ,
b1110000 Q"
b1110000 R"
b1101000 |
b1101000 5"
b1101100 0
b1101100 O"
b1101100 -
b1101100 1
b1101100 ("
b1101100 ="
b1101100 @"
b1110000 /
b1110000 ;
b1110000 <"
b1110000 N"
b1101100 *
b1101100 <
b1101100 B"
b1101100 m"
b11011 $
1!
#1375
0!
#1400
b1110100 T"
b1110100 l"
b1110100 ,
b1110100 Q"
b1110100 R"
b1110000 0
b1110000 O"
b1110000 -
b1110000 1
b1110000 ("
b1110000 ="
b1110000 @"
b1101100 |
b1101100 5"
b1110100 /
b1110100 ;
b1110100 <"
b1110100 N"
b1110000 *
b1110000 <
b1110000 B"
b1110000 m"
b11100 $
1!
#1425
0!
#1450
b1111000 T"
b1111000 l"
b1111000 ,
b1111000 Q"
b1111000 R"
b1110000 |
b1110000 5"
b1110100 0
b1110100 O"
b1110100 -
b1110100 1
b1110100 ("
b1110100 ="
b1110100 @"
b1111000 /
b1111000 ;
b1111000 <"
b1111000 N"
b1110100 *
b1110100 <
b1110100 B"
b1110100 m"
b11101 $
1!
#1475
0!
#1500
b1111100 T"
b1111100 l"
b1111100 ,
b1111100 Q"
b1111100 R"
b1111000 0
b1111000 O"
b1111000 -
b1111000 1
b1111000 ("
b1111000 ="
b1111000 @"
b1110100 |
b1110100 5"
b1111100 /
b1111100 ;
b1111100 <"
b1111100 N"
b1111000 *
b1111000 <
b1111000 B"
b1111000 m"
b11110 $
1!
